%YAML 1.1
%TAG !u! tag:unity3d.com,2011:
--- !u!1001 &5377690420937328186
PrefabInstance:
  m_ObjectHideFlags: 0
  serializedVersion: 2
  m_Modification:
    m_TransformParent: {fileID: 0}
    m_Modifications:
    - target: {fileID: 388225399282098363, guid: 8baadd40ecaa2444eb0b82f8fb83281a, type: 3}
      propertyPath: expandRangeStep
      value: 3
      objectReference: {fileID: 0}
    - target: {fileID: 2340127632139839324, guid: 8baadd40ecaa2444eb0b82f8fb83281a, type: 3}
      propertyPath: m_Name
      value: WaterSanctuary_Random
      objectReference: {fileID: 0}
    - target: {fileID: 2340127632139839327, guid: 8baadd40ecaa2444eb0b82f8fb83281a, type: 3}
      propertyPath: m_RootOrder
      value: 0
      objectReference: {fileID: 0}
    - target: {fileID: 2340127632139839327, guid: 8baadd40ecaa2444eb0b82f8fb83281a, type: 3}
      propertyPath: m_LocalPosition.x
      value: 0
      objectReference: {fileID: 0}
    - target: {fileID: 2340127632139839327, guid: 8baadd40ecaa2444eb0b82f8fb83281a, type: 3}
      propertyPath: m_LocalPosition.y
      value: 0
      objectReference: {fileID: 0}
    - target: {fileID: 2340127632139839327, guid: 8baadd40ecaa2444eb0b82f8fb83281a, type: 3}
      propertyPath: m_LocalPosition.z
      value: 0
      objectReference: {fileID: 0}
    - target: {fileID: 2340127632139839327, guid: 8baadd40ecaa2444eb0b82f8fb83281a, type: 3}
      propertyPath: m_LocalRotation.w
      value: 1
      objectReference: {fileID: 0}
    - target: {fileID: 2340127632139839327, guid: 8baadd40ecaa2444eb0b82f8fb83281a, type: 3}
      propertyPath: m_LocalRotation.x
      value: 0
      objectReference: {fileID: 0}
    - target: {fileID: 2340127632139839327, guid: 8baadd40ecaa2444eb0b82f8fb83281a, type: 3}
      propertyPath: m_LocalRotation.y
      value: 0
      objectReference: {fileID: 0}
    - target: {fileID: 2340127632139839327, guid: 8baadd40ecaa2444eb0b82f8fb83281a, type: 3}
      propertyPath: m_LocalRotation.z
      value: 0
      objectReference: {fileID: 0}
    - target: {fileID: 2340127632139839327, guid: 8baadd40ecaa2444eb0b82f8fb83281a, type: 3}
      propertyPath: m_LocalEulerAnglesHint.x
      value: 0
      objectReference: {fileID: 0}
    - target: {fileID: 2340127632139839327, guid: 8baadd40ecaa2444eb0b82f8fb83281a, type: 3}
      propertyPath: m_LocalEulerAnglesHint.y
      value: 0
      objectReference: {fileID: 0}
    - target: {fileID: 2340127632139839327, guid: 8baadd40ecaa2444eb0b82f8fb83281a, type: 3}
      propertyPath: m_LocalEulerAnglesHint.z
      value: 0
      objectReference: {fileID: 0}
    - target: {fileID: 6371752806448174591, guid: 8baadd40ecaa2444eb0b82f8fb83281a, type: 3}
      propertyPath: spawningQuantities.Array.data[0].prefabs.Array.size
      value: 9
      objectReference: {fileID: 0}
    - target: {fileID: 6371752806448174591, guid: 8baadd40ecaa2444eb0b82f8fb83281a, type: 3}
      propertyPath: spawningQuantities.Array.data[0].prefabs.Array.data[1]
      value: 
      objectReference: {fileID: 692254643411042455, guid: 255e31a2b3c745949a71dc7a14fc140f, type: 3}
    - target: {fileID: 6371752806448174591, guid: 8baadd40ecaa2444eb0b82f8fb83281a, type: 3}
      propertyPath: spawningQuantities.Array.data[0].prefabs.Array.data[2]
      value: 
      objectReference: {fileID: 9157801086263167283, guid: a2c00e1849896ec4a91982851da3adf5, type: 3}
    - target: {fileID: 6371752806448174591, guid: 8baadd40ecaa2444eb0b82f8fb83281a, type: 3}
      propertyPath: spawningQuantities.Array.data[0].prefabs.Array.data[3]
      value: 
      objectReference: {fileID: 9157801086263167283, guid: a2c00e1849896ec4a91982851da3adf5, type: 3}
    - target: {fileID: 6371752806448174591, guid: 8baadd40ecaa2444eb0b82f8fb83281a, type: 3}
      propertyPath: spawningQuantities.Array.data[0].prefabs.Array.data[4]
      value: 
      objectReference: {fileID: 3708449102534487259, guid: b254f011abdeb674f84436f6f72627a0, type: 3}
    - target: {fileID: 6371752806448174591, guid: 8baadd40ecaa2444eb0b82f8fb83281a, type: 3}
      propertyPath: spawningQuantities.Array.data[0].prefabs.Array.data[5]
      value: 
      objectReference: {fileID: 3708449102534487259, guid: b254f011abdeb674f84436f6f72627a0, type: 3}
    - target: {fileID: 6371752806448174591, guid: 8baadd40ecaa2444eb0b82f8fb83281a, type: 3}
      propertyPath: spawningQuantities.Array.data[0].prefabs.Array.data[6]
      value: 
      objectReference: {fileID: 7046877230001861117, guid: 7dc5a06edad2da049afc651154b8db53, type: 3}
    - target: {fileID: 6371752806448174591, guid: 8baadd40ecaa2444eb0b82f8fb83281a, type: 3}
      propertyPath: spawningQuantities.Array.data[0].prefabs.Array.data[7]
      value: 
      objectReference: {fileID: 7046877230001861117, guid: 7dc5a06edad2da049afc651154b8db53, type: 3}
    - target: {fileID: 6371752806448174591, guid: 8baadd40ecaa2444eb0b82f8fb83281a, type: 3}
      propertyPath: spawningQuantities.Array.data[0].prefabs.Array.data[8]
      value: 
      objectReference: {fileID: 4076102156744284128, guid: f069c94862575cb4aad7165a6729ba67, type: 3}
    - target: {fileID: 8237300753731338911, guid: 8baadd40ecaa2444eb0b82f8fb83281a, type: 3}
      propertyPath: spawningQuantities.Array.data[0].prefabs.Array.size
      value: 9
      objectReference: {fileID: 0}
    - target: {fileID: 8237300753731338911, guid: 8baadd40ecaa2444eb0b82f8fb83281a, type: 3}
      propertyPath: spawningQuantities.Array.data[0].prefabs.Array.data[1]
      value: 
      objectReference: {fileID: 692254643411042455, guid: 255e31a2b3c745949a71dc7a14fc140f, type: 3}
    - target: {fileID: 8237300753731338911, guid: 8baadd40ecaa2444eb0b82f8fb83281a, type: 3}
      propertyPath: spawningQuantities.Array.data[0].prefabs.Array.data[2]
      value: 
      objectReference: {fileID: 9157801086263167283, guid: a2c00e1849896ec4a91982851da3adf5, type: 3}
    - target: {fileID: 8237300753731338911, guid: 8baadd40ecaa2444eb0b82f8fb83281a, type: 3}
      propertyPath: spawningQuantities.Array.data[0].prefabs.Array.data[3]
      value: 
      objectReference: {fileID: 9157801086263167283, guid: a2c00e1849896ec4a91982851da3adf5, type: 3}
    - target: {fileID: 8237300753731338911, guid: 8baadd40ecaa2444eb0b82f8fb83281a, type: 3}
      propertyPath: spawningQuantities.Array.data[0].prefabs.Array.data[4]
      value: 
      objectReference: {fileID: 3708449102534487259, guid: b254f011abdeb674f84436f6f72627a0, type: 3}
    - target: {fileID: 8237300753731338911, guid: 8baadd40ecaa2444eb0b82f8fb83281a, type: 3}
      propertyPath: spawningQuantities.Array.data[0].prefabs.Array.data[5]
      value: 
      objectReference: {fileID: 3708449102534487259, guid: b254f011abdeb674f84436f6f72627a0, type: 3}
    - target: {fileID: 8237300753731338911, guid: 8baadd40ecaa2444eb0b82f8fb83281a, type: 3}
      propertyPath: spawningQuantities.Array.data[0].prefabs.Array.data[6]
      value: 
      objectReference: {fileID: 7046877230001861117, guid: 7dc5a06edad2da049afc651154b8db53, type: 3}
    - target: {fileID: 8237300753731338911, guid: 8baadd40ecaa2444eb0b82f8fb83281a, type: 3}
      propertyPath: spawningQuantities.Array.data[0].prefabs.Array.data[7]
      value: 
      objectReference: {fileID: 7046877230001861117, guid: 7dc5a06edad2da049afc651154b8db53, type: 3}
    - target: {fileID: 8237300753731338911, guid: 8baadd40ecaa2444eb0b82f8fb83281a, type: 3}
      propertyPath: spawningQuantities.Array.data[0].prefabs.Array.data[8]
      value: 
      objectReference: {fileID: 4076102156744284128, guid: f069c94862575cb4aad7165a6729ba67, type: 3}
    m_RemovedComponents: []
  m_SourcePrefab: {fileID: 100100000, guid: 8baadd40ecaa2444eb0b82f8fb83281a, type: 3}
