%YAML 1.1
%TAG !u! tag:unity3d.com,2011:
--- !u!1001 &7783400668961187571
PrefabInstance:
  m_ObjectHideFlags: 0
  serializedVersion: 2
  m_Modification:
    m_TransformParent: {fileID: 0}
    m_Modifications:
    - target: {fileID: 1862715414325560578, guid: 65ae26ece94df74438a9ca3914bf7cda, type: 3}
      propertyPath: spawningQuantities.Array.size
      value: 2
      objectReference: {fileID: 0}
    - target: {fileID: 1862715414325560578, guid: 65ae26ece94df74438a9ca3914bf7cda, type: 3}
      propertyPath: spawningQuantities.Array.data[0].quantity
      value: 2
      objectReference: {fileID: 0}
    - target: {fileID: 1862715414325560578, guid: 65ae26ece94df74438a9ca3914bf7cda, type: 3}
      propertyPath: spawningQuantities.Array.data[1].quantity
      value: 3
      objectReference: {fileID: 0}
    - target: {fileID: 1862715414325560578, guid: 65ae26ece94df74438a9ca3914bf7cda, type: 3}
      propertyPath: spawningQuantities.Array.data[2].quantity
      value: 3
      objectReference: {fileID: 0}
    - target: {fileID: 1862715414325560578, guid: 65ae26ece94df74438a9ca3914bf7cda, type: 3}
      propertyPath: spawningQuantities.Array.data[1].quantityMode
      value: 1
      objectReference: {fileID: 0}
    - target: {fileID: 1862715414325560578, guid: 65ae26ece94df74438a9ca3914bf7cda, type: 3}
      propertyPath: spawningQuantities.Array.data[2].quantityMode
      value: 1
      objectReference: {fileID: 0}
    - target: {fileID: 1862715414325560578, guid: 65ae26ece94df74438a9ca3914bf7cda, type: 3}
      propertyPath: spawningQuantities.Array.data[0].prefabs.Array.size
      value: 3
      objectReference: {fileID: 0}
    - target: {fileID: 1862715414325560578, guid: 65ae26ece94df74438a9ca3914bf7cda, type: 3}
      propertyPath: spawningQuantities.Array.data[1].prefabs.Array.size
      value: 2
      objectReference: {fileID: 0}
    - target: {fileID: 1862715414325560578, guid: 65ae26ece94df74438a9ca3914bf7cda, type: 3}
      propertyPath: spawningQuantities.Array.data[2].prefabs.Array.size
      value: 2
      objectReference: {fileID: 0}
    - target: {fileID: 1862715414325560578, guid: 65ae26ece94df74438a9ca3914bf7cda, type: 3}
      propertyPath: spawningQuantities.Array.data[0].prefabs.Array.data[0]
      value: 
      objectReference: {fileID: 5818177879261154909, guid: 06069cd9dc7b56340b9b7ae646b69731, type: 3}
    - target: {fileID: 1862715414325560578, guid: 65ae26ece94df74438a9ca3914bf7cda, type: 3}
      propertyPath: spawningQuantities.Array.data[0].prefabs.Array.data[1]
      value: 
      objectReference: {fileID: 5818177879261154909, guid: 06069cd9dc7b56340b9b7ae646b69731, type: 3}
    - target: {fileID: 1862715414325560578, guid: 65ae26ece94df74438a9ca3914bf7cda, type: 3}
      propertyPath: spawningQuantities.Array.data[0].prefabs.Array.data[2]
      value: 
      objectReference: {fileID: 6033418741677926515, guid: 193770a3e77f1674cbe31febefeea5cb, type: 3}
    - target: {fileID: 1862715414325560578, guid: 65ae26ece94df74438a9ca3914bf7cda, type: 3}
      propertyPath: spawningQuantities.Array.data[1].prefabs.Array.data[0]
      value: 
      objectReference: {fileID: 5818177879261154909, guid: d5e0a36850efca547afd64a229a0a0f8, type: 3}
    - target: {fileID: 1862715414325560578, guid: 65ae26ece94df74438a9ca3914bf7cda, type: 3}
      propertyPath: spawningQuantities.Array.data[1].prefabs.Array.data[1]
      value: 
      objectReference: {fileID: 3291114067476548065, guid: 65445d0a91dab274194f4d81625c1453, type: 3}
    - target: {fileID: 1862715414325560578, guid: 65ae26ece94df74438a9ca3914bf7cda, type: 3}
      propertyPath: spawningQuantities.Array.data[1].prefabs.Array.data[2]
      value: 
      objectReference: {fileID: 6033418741677926515, guid: 193770a3e77f1674cbe31febefeea5cb, type: 3}
    - target: {fileID: 1862715414325560578, guid: 65ae26ece94df74438a9ca3914bf7cda, type: 3}
      propertyPath: spawningQuantities.Array.data[2].prefabs.Array.data[0]
      value: 
      objectReference: {fileID: 5818177879261154909, guid: d5e0a36850efca547afd64a229a0a0f8, type: 3}
    - target: {fileID: 1862715414325560578, guid: 65ae26ece94df74438a9ca3914bf7cda, type: 3}
      propertyPath: spawningQuantities.Array.data[2].prefabs.Array.data[1]
      value: 
      objectReference: {fileID: 3291114067476548065, guid: 65445d0a91dab274194f4d81625c1453, type: 3}
    - target: {fileID: 2626251170491034096, guid: 65ae26ece94df74438a9ca3914bf7cda, type: 3}
      propertyPath: m_RootOrder
      value: 0
      objectReference: {fileID: 0}
    - target: {fileID: 2626251170491034096, guid: 65ae26ece94df74438a9ca3914bf7cda, type: 3}
      propertyPath: m_LocalPosition.x
      value: 0
      objectReference: {fileID: 0}
    - target: {fileID: 2626251170491034096, guid: 65ae26ece94df74438a9ca3914bf7cda, type: 3}
      propertyPath: m_LocalPosition.y
      value: 0
      objectReference: {fileID: 0}
    - target: {fileID: 2626251170491034096, guid: 65ae26ece94df74438a9ca3914bf7cda, type: 3}
      propertyPath: m_LocalPosition.z
      value: 0
      objectReference: {fileID: 0}
    - target: {fileID: 2626251170491034096, guid: 65ae26ece94df74438a9ca3914bf7cda, type: 3}
      propertyPath: m_LocalRotation.w
      value: 1
      objectReference: {fileID: 0}
    - target: {fileID: 2626251170491034096, guid: 65ae26ece94df74438a9ca3914bf7cda, type: 3}
      propertyPath: m_LocalRotation.x
      value: 0
      objectReference: {fileID: 0}
    - target: {fileID: 2626251170491034096, guid: 65ae26ece94df74438a9ca3914bf7cda, type: 3}
      propertyPath: m_LocalRotation.y
      value: 0
      objectReference: {fileID: 0}
    - target: {fileID: 2626251170491034096, guid: 65ae26ece94df74438a9ca3914bf7cda, type: 3}
      propertyPath: m_LocalRotation.z
      value: 0
      objectReference: {fileID: 0}
    - target: {fileID: 2626251170491034096, guid: 65ae26ece94df74438a9ca3914bf7cda, type: 3}
      propertyPath: m_LocalEulerAnglesHint.x
      value: 0
      objectReference: {fileID: 0}
    - target: {fileID: 2626251170491034096, guid: 65ae26ece94df74438a9ca3914bf7cda, type: 3}
      propertyPath: m_LocalEulerAnglesHint.y
      value: 0
      objectReference: {fileID: 0}
    - target: {fileID: 2626251170491034096, guid: 65ae26ece94df74438a9ca3914bf7cda, type: 3}
      propertyPath: m_LocalEulerAnglesHint.z
      value: 0
      objectReference: {fileID: 0}
    - target: {fileID: 2626251170491034098, guid: 65ae26ece94df74438a9ca3914bf7cda, type: 3}
      propertyPath: m_Name
      value: ObjectManager_TheForest2
      objectReference: {fileID: 0}
    - target: {fileID: 2626251170491034099, guid: 65ae26ece94df74438a9ca3914bf7cda, type: 3}
      propertyPath: nbInitialDrops
      value: 1
      objectReference: {fileID: 0}
    m_RemovedComponents: []
  m_SourcePrefab: {fileID: 100100000, guid: 65ae26ece94df74438a9ca3914bf7cda, type: 3}
