%YAML 1.1
%TAG !u! tag:unity3d.com,2011:
--- !u!1001 &4532306406431656568
PrefabInstance:
  m_ObjectHideFlags: 0
  serializedVersion: 2
  m_Modification:
    m_TransformParent: {fileID: 0}
    m_Modifications:
    - target: {fileID: 8377831786814091364, guid: 0887b9686f265c1418871ffb6452743f, type: 3}
      propertyPath: m_Name
      value: BowWeapon
      objectReference: {fileID: 0}
    - target: {fileID: 8377831786814091386, guid: 0887b9686f265c1418871ffb6452743f, type: 3}
      propertyPath: m_RootOrder
      value: 0
      objectReference: {fileID: 0}
    - target: {fileID: 8377831786814091386, guid: 0887b9686f265c1418871ffb6452743f, type: 3}
      propertyPath: m_LocalPosition.x
      value: 0
      objectReference: {fileID: 0}
    - target: {fileID: 8377831786814091386, guid: 0887b9686f265c1418871ffb6452743f, type: 3}
      propertyPath: m_LocalPosition.y
      value: 0
      objectReference: {fileID: 0}
    - target: {fileID: 8377831786814091386, guid: 0887b9686f265c1418871ffb6452743f, type: 3}
      propertyPath: m_LocalPosition.z
      value: 0
      objectReference: {fileID: 0}
    - target: {fileID: 8377831786814091386, guid: 0887b9686f265c1418871ffb6452743f, type: 3}
      propertyPath: m_LocalRotation.w
      value: 1
      objectReference: {fileID: 0}
    - target: {fileID: 8377831786814091386, guid: 0887b9686f265c1418871ffb6452743f, type: 3}
      propertyPath: m_LocalRotation.x
      value: 0
      objectReference: {fileID: 0}
    - target: {fileID: 8377831786814091386, guid: 0887b9686f265c1418871ffb6452743f, type: 3}
      propertyPath: m_LocalRotation.y
      value: 0
      objectReference: {fileID: 0}
    - target: {fileID: 8377831786814091386, guid: 0887b9686f265c1418871ffb6452743f, type: 3}
      propertyPath: m_LocalRotation.z
      value: 0
      objectReference: {fileID: 0}
    - target: {fileID: 8377831786814091386, guid: 0887b9686f265c1418871ffb6452743f, type: 3}
      propertyPath: m_LocalEulerAnglesHint.x
      value: 0
      objectReference: {fileID: 0}
    - target: {fileID: 8377831786814091386, guid: 0887b9686f265c1418871ffb6452743f, type: 3}
      propertyPath: m_LocalEulerAnglesHint.y
      value: 0
      objectReference: {fileID: 0}
    - target: {fileID: 8377831786814091386, guid: 0887b9686f265c1418871ffb6452743f, type: 3}
      propertyPath: m_LocalEulerAnglesHint.z
      value: 0
      objectReference: {fileID: 0}
    - target: {fileID: 8377831786814091387, guid: 0887b9686f265c1418871ffb6452743f, type: 3}
      propertyPath: name
      value: Arc
      objectReference: {fileID: 0}
    - target: {fileID: 8377831786814091387, guid: 0887b9686f265c1418871ffb6452743f, type: 3}
      propertyPath: type
      value: 4
      objectReference: {fileID: 0}
    - target: {fileID: 8377831786814091387, guid: 0887b9686f265c1418871ffb6452743f, type: 3}
      propertyPath: sprite
      value: 
      objectReference: {fileID: 21300000, guid: bbf8638a8a75d9c42b93639213c92c9b, type: 3}
    - target: {fileID: 8377831786814091387, guid: 0887b9686f265c1418871ffb6452743f, type: 3}
      propertyPath: description
      value: "Pratique pour rester \xE0 distance sans prendre de risques."
      objectReference: {fileID: 0}
    - target: {fileID: 8377831786814091387, guid: 0887b9686f265c1418871ffb6452743f, type: 3}
      propertyPath: attackPrefab
      value: 
      objectReference: {fileID: 6654081361470978568, guid: 2a823ad7b18467343915d549cbbda6a6, type: 3}
    - target: {fileID: 8377831786814091387, guid: 0887b9686f265c1418871ffb6452743f, type: 3}
      propertyPath: instantiatedAttack
      value: 
      objectReference: {fileID: 0}
    m_RemovedComponents: []
  m_SourcePrefab: {fileID: 100100000, guid: 0887b9686f265c1418871ffb6452743f, type: 3}
