%YAML 1.1
%TAG !u! tag:unity3d.com,2011:
--- !u!1001 &3367352711936589186
PrefabInstance:
  m_ObjectHideFlags: 0
  serializedVersion: 2
  m_Modification:
    m_TransformParent: {fileID: 0}
    m_Modifications:
    - target: {fileID: 4857680722915659517, guid: 1937f29e4792c3841a1e4d445bf2546d, type: 3}
      propertyPath: rarity
      value: 2
      objectReference: {fileID: 0}
    - target: {fileID: 4857680722915659517, guid: 1937f29e4792c3841a1e4d445bf2546d, type: 3}
      propertyPath: rangeIncrease
      value: 1
      objectReference: {fileID: 0}
    - target: {fileID: 5213581743445686032, guid: 1937f29e4792c3841a1e4d445bf2546d, type: 3}
      propertyPath: m_Name
      value: WeaponUpgrade_+1RangePerAttack
      objectReference: {fileID: 0}
    - target: {fileID: 5213581743445686039, guid: 1937f29e4792c3841a1e4d445bf2546d, type: 3}
      propertyPath: m_RootOrder
      value: 0
      objectReference: {fileID: 0}
    - target: {fileID: 5213581743445686039, guid: 1937f29e4792c3841a1e4d445bf2546d, type: 3}
      propertyPath: m_LocalPosition.x
      value: 0
      objectReference: {fileID: 0}
    - target: {fileID: 5213581743445686039, guid: 1937f29e4792c3841a1e4d445bf2546d, type: 3}
      propertyPath: m_LocalPosition.y
      value: 0
      objectReference: {fileID: 0}
    - target: {fileID: 5213581743445686039, guid: 1937f29e4792c3841a1e4d445bf2546d, type: 3}
      propertyPath: m_LocalPosition.z
      value: 0
      objectReference: {fileID: 0}
    - target: {fileID: 5213581743445686039, guid: 1937f29e4792c3841a1e4d445bf2546d, type: 3}
      propertyPath: m_LocalRotation.w
      value: 1
      objectReference: {fileID: 0}
    - target: {fileID: 5213581743445686039, guid: 1937f29e4792c3841a1e4d445bf2546d, type: 3}
      propertyPath: m_LocalRotation.x
      value: 0
      objectReference: {fileID: 0}
    - target: {fileID: 5213581743445686039, guid: 1937f29e4792c3841a1e4d445bf2546d, type: 3}
      propertyPath: m_LocalRotation.y
      value: 0
      objectReference: {fileID: 0}
    - target: {fileID: 5213581743445686039, guid: 1937f29e4792c3841a1e4d445bf2546d, type: 3}
      propertyPath: m_LocalRotation.z
      value: 0
      objectReference: {fileID: 0}
    - target: {fileID: 5213581743445686039, guid: 1937f29e4792c3841a1e4d445bf2546d, type: 3}
      propertyPath: m_LocalEulerAnglesHint.x
      value: 0
      objectReference: {fileID: 0}
    - target: {fileID: 5213581743445686039, guid: 1937f29e4792c3841a1e4d445bf2546d, type: 3}
      propertyPath: m_LocalEulerAnglesHint.y
      value: 0
      objectReference: {fileID: 0}
    - target: {fileID: 5213581743445686039, guid: 1937f29e4792c3841a1e4d445bf2546d, type: 3}
      propertyPath: m_LocalEulerAnglesHint.z
      value: 0
      objectReference: {fileID: 0}
    - target: {fileID: 7752576170152835434, guid: 1937f29e4792c3841a1e4d445bf2546d, type: 3}
      propertyPath: rangeIncrease
      value: 1
      objectReference: {fileID: 0}
    m_RemovedComponents: []
  m_SourcePrefab: {fileID: 100100000, guid: 1937f29e4792c3841a1e4d445bf2546d, type: 3}
