%YAML 1.1
%TAG !u! tag:unity3d.com,2011:
--- !u!1001 &7010907376151634728
PrefabInstance:
  m_ObjectHideFlags: 0
  serializedVersion: 2
  m_Modification:
    m_TransformParent: {fileID: 0}
    m_Modifications:
    - target: {fileID: 1098206087694855026, guid: b23d57d5b5d317941994b6ec464ecd4f, type: 3}
      propertyPath: spawningQuantities.Array.data[0].prefabs.Array.data[0]
      value: 
      objectReference: {fileID: 890679620238708267, guid: 211d76b0e5b18754183adf9ae626fc22, type: 3}
    - target: {fileID: 2666230558589123602, guid: b23d57d5b5d317941994b6ec464ecd4f, type: 3}
      propertyPath: spawningQuantities.Array.data[0].prefabs.Array.data[1]
      value: 
      objectReference: {fileID: 890679620238708267, guid: 211d76b0e5b18754183adf9ae626fc22, type: 3}
    - target: {fileID: 5923323147409841718, guid: b23d57d5b5d317941994b6ec464ecd4f, type: 3}
      propertyPath: expandRangeStep
      value: 4
      objectReference: {fileID: 0}
    - target: {fileID: 8586484718324505041, guid: b23d57d5b5d317941994b6ec464ecd4f, type: 3}
      propertyPath: m_Name
      value: FireSanctuary_Beast_TheForest2
      objectReference: {fileID: 0}
    - target: {fileID: 8586484718324505042, guid: b23d57d5b5d317941994b6ec464ecd4f, type: 3}
      propertyPath: m_RootOrder
      value: 0
      objectReference: {fileID: 0}
    - target: {fileID: 8586484718324505042, guid: b23d57d5b5d317941994b6ec464ecd4f, type: 3}
      propertyPath: m_LocalPosition.x
      value: 0
      objectReference: {fileID: 0}
    - target: {fileID: 8586484718324505042, guid: b23d57d5b5d317941994b6ec464ecd4f, type: 3}
      propertyPath: m_LocalPosition.y
      value: 0
      objectReference: {fileID: 0}
    - target: {fileID: 8586484718324505042, guid: b23d57d5b5d317941994b6ec464ecd4f, type: 3}
      propertyPath: m_LocalPosition.z
      value: 0
      objectReference: {fileID: 0}
    - target: {fileID: 8586484718324505042, guid: b23d57d5b5d317941994b6ec464ecd4f, type: 3}
      propertyPath: m_LocalRotation.w
      value: 1
      objectReference: {fileID: 0}
    - target: {fileID: 8586484718324505042, guid: b23d57d5b5d317941994b6ec464ecd4f, type: 3}
      propertyPath: m_LocalRotation.x
      value: 0
      objectReference: {fileID: 0}
    - target: {fileID: 8586484718324505042, guid: b23d57d5b5d317941994b6ec464ecd4f, type: 3}
      propertyPath: m_LocalRotation.y
      value: 0
      objectReference: {fileID: 0}
    - target: {fileID: 8586484718324505042, guid: b23d57d5b5d317941994b6ec464ecd4f, type: 3}
      propertyPath: m_LocalRotation.z
      value: 0
      objectReference: {fileID: 0}
    - target: {fileID: 8586484718324505042, guid: b23d57d5b5d317941994b6ec464ecd4f, type: 3}
      propertyPath: m_LocalEulerAnglesHint.x
      value: 0
      objectReference: {fileID: 0}
    - target: {fileID: 8586484718324505042, guid: b23d57d5b5d317941994b6ec464ecd4f, type: 3}
      propertyPath: m_LocalEulerAnglesHint.y
      value: 0
      objectReference: {fileID: 0}
    - target: {fileID: 8586484718324505042, guid: b23d57d5b5d317941994b6ec464ecd4f, type: 3}
      propertyPath: m_LocalEulerAnglesHint.z
      value: 0
      objectReference: {fileID: 0}
    m_RemovedComponents: []
  m_SourcePrefab: {fileID: 100100000, guid: b23d57d5b5d317941994b6ec464ecd4f, type: 3}
