%YAML 1.1
%TAG !u! tag:unity3d.com,2011:
--- !u!1001 &2387189182088038214
PrefabInstance:
  m_ObjectHideFlags: 0
  serializedVersion: 2
  m_Modification:
    m_TransformParent: {fileID: 0}
    m_Modifications:
    - target: {fileID: 388225399282098363, guid: 8baadd40ecaa2444eb0b82f8fb83281a, type: 3}
      propertyPath: expandRangeStep
      value: 2
      objectReference: {fileID: 0}
    - target: {fileID: 2340127632139839324, guid: 8baadd40ecaa2444eb0b82f8fb83281a, type: 3}
      propertyPath: m_Name
      value: WaterSanctuary_Swapper_TheForest2
      objectReference: {fileID: 0}
    - target: {fileID: 2340127632139839327, guid: 8baadd40ecaa2444eb0b82f8fb83281a, type: 3}
      propertyPath: m_RootOrder
      value: 0
      objectReference: {fileID: 0}
    - target: {fileID: 2340127632139839327, guid: 8baadd40ecaa2444eb0b82f8fb83281a, type: 3}
      propertyPath: m_LocalPosition.x
      value: 0
      objectReference: {fileID: 0}
    - target: {fileID: 2340127632139839327, guid: 8baadd40ecaa2444eb0b82f8fb83281a, type: 3}
      propertyPath: m_LocalPosition.y
      value: 0
      objectReference: {fileID: 0}
    - target: {fileID: 2340127632139839327, guid: 8baadd40ecaa2444eb0b82f8fb83281a, type: 3}
      propertyPath: m_LocalPosition.z
      value: 0
      objectReference: {fileID: 0}
    - target: {fileID: 2340127632139839327, guid: 8baadd40ecaa2444eb0b82f8fb83281a, type: 3}
      propertyPath: m_LocalRotation.w
      value: 1
      objectReference: {fileID: 0}
    - target: {fileID: 2340127632139839327, guid: 8baadd40ecaa2444eb0b82f8fb83281a, type: 3}
      propertyPath: m_LocalRotation.x
      value: 0
      objectReference: {fileID: 0}
    - target: {fileID: 2340127632139839327, guid: 8baadd40ecaa2444eb0b82f8fb83281a, type: 3}
      propertyPath: m_LocalRotation.y
      value: 0
      objectReference: {fileID: 0}
    - target: {fileID: 2340127632139839327, guid: 8baadd40ecaa2444eb0b82f8fb83281a, type: 3}
      propertyPath: m_LocalRotation.z
      value: 0
      objectReference: {fileID: 0}
    - target: {fileID: 2340127632139839327, guid: 8baadd40ecaa2444eb0b82f8fb83281a, type: 3}
      propertyPath: m_LocalEulerAnglesHint.x
      value: 0
      objectReference: {fileID: 0}
    - target: {fileID: 2340127632139839327, guid: 8baadd40ecaa2444eb0b82f8fb83281a, type: 3}
      propertyPath: m_LocalEulerAnglesHint.y
      value: 0
      objectReference: {fileID: 0}
    - target: {fileID: 2340127632139839327, guid: 8baadd40ecaa2444eb0b82f8fb83281a, type: 3}
      propertyPath: m_LocalEulerAnglesHint.z
      value: 0
      objectReference: {fileID: 0}
    - target: {fileID: 6371752806448174591, guid: 8baadd40ecaa2444eb0b82f8fb83281a, type: 3}
      propertyPath: spawningQuantities.Array.data[0].prefabs.Array.size
      value: 1
      objectReference: {fileID: 0}
    - target: {fileID: 6371752806448174591, guid: 8baadd40ecaa2444eb0b82f8fb83281a, type: 3}
      propertyPath: spawningQuantities.Array.data[0].prefabs.Array.data[0]
      value: 
      objectReference: {fileID: 9157801086263167283, guid: a2c00e1849896ec4a91982851da3adf5, type: 3}
    - target: {fileID: 6371752806448174591, guid: 8baadd40ecaa2444eb0b82f8fb83281a, type: 3}
      propertyPath: spawningQuantities.Array.data[0].prefabs.Array.data[1]
      value: 
      objectReference: {fileID: 7046877230001861117, guid: 7dc5a06edad2da049afc651154b8db53, type: 3}
    - target: {fileID: 6371752806448174591, guid: 8baadd40ecaa2444eb0b82f8fb83281a, type: 3}
      propertyPath: spawningQuantities.Array.data[0].prefabs.Array.data[2]
      value: 
      objectReference: {fileID: 7046877230001861117, guid: 7dc5a06edad2da049afc651154b8db53, type: 3}
    - target: {fileID: 6371752806448174591, guid: 8baadd40ecaa2444eb0b82f8fb83281a, type: 3}
      propertyPath: spawningQuantities.Array.data[0].prefabs.Array.data[3]
      value: 
      objectReference: {fileID: 7046877230001861117, guid: 7dc5a06edad2da049afc651154b8db53, type: 3}
    - target: {fileID: 6843224545100963444, guid: 8baadd40ecaa2444eb0b82f8fb83281a, type: 3}
      propertyPath: initialLife
      value: 4
      objectReference: {fileID: 0}
    - target: {fileID: 8237300753731338911, guid: 8baadd40ecaa2444eb0b82f8fb83281a, type: 3}
      propertyPath: spawningQuantities.Array.data[0].prefabs.Array.size
      value: 2
      objectReference: {fileID: 0}
    - target: {fileID: 8237300753731338911, guid: 8baadd40ecaa2444eb0b82f8fb83281a, type: 3}
      propertyPath: spawningQuantities.Array.data[0].prefabs.Array.data[1]
      value: 
      objectReference: {fileID: 9157801086263167283, guid: a2c00e1849896ec4a91982851da3adf5, type: 3}
    - target: {fileID: 8237300753731338911, guid: 8baadd40ecaa2444eb0b82f8fb83281a, type: 3}
      propertyPath: spawningQuantities.Array.data[0].prefabs.Array.data[2]
      value: 
      objectReference: {fileID: 7046877230001861117, guid: 7dc5a06edad2da049afc651154b8db53, type: 3}
    - target: {fileID: 8237300753731338911, guid: 8baadd40ecaa2444eb0b82f8fb83281a, type: 3}
      propertyPath: spawningQuantities.Array.data[0].prefabs.Array.data[3]
      value: 
      objectReference: {fileID: 7046877230001861117, guid: 7dc5a06edad2da049afc651154b8db53, type: 3}
    m_RemovedComponents: []
  m_SourcePrefab: {fileID: 100100000, guid: 8baadd40ecaa2444eb0b82f8fb83281a, type: 3}
