%YAML 1.1
%TAG !u! tag:unity3d.com,2011:
--- !u!1001 &9056703454961762142
PrefabInstance:
  m_ObjectHideFlags: 0
  serializedVersion: 2
  m_Modification:
    m_TransformParent: {fileID: 0}
    m_Modifications:
    - target: {fileID: 3219882261373274981, guid: 4543a279a327f2344ab3236d77edec9d, type: 3}
      propertyPath: m_Name
      value: GameManager_TheAcademy2
      objectReference: {fileID: 0}
    - target: {fileID: 3219882261373274982, guid: 4543a279a327f2344ab3236d77edec9d, type: 3}
      propertyPath: playerPrefab
      value: 
      objectReference: {fileID: 5554011778547568022, guid: 623c42dce3ce7c14f85371d827ad25b5, type: 3}
    - target: {fileID: 3219882261373274982, guid: 4543a279a327f2344ab3236d77edec9d, type: 3}
      propertyPath: mapManagerPrefab
      value: 
      objectReference: {fileID: 1275437247947023952, guid: 87e6badc72b83d34ab5413540ab6ecc3, type: 3}
    - target: {fileID: 3219882261373274982, guid: 4543a279a327f2344ab3236d77edec9d, type: 3}
      propertyPath: enemyManagerPrefab
      value: 
      objectReference: {fileID: 5826106473913344911, guid: 45b2e34b8563fa54eb3e17cb1e873c89, type: 3}
    - target: {fileID: 3219882261373274982, guid: 4543a279a327f2344ab3236d77edec9d, type: 3}
      propertyPath: eventManagerPrefab
      value: 
      objectReference: {fileID: 56595278696095687, guid: c0703a113b886bc4c844034fac62d582, type: 3}
    - target: {fileID: 3219882261373274982, guid: 4543a279a327f2344ab3236d77edec9d, type: 3}
      propertyPath: storyManagerPrefab
      value: 
      objectReference: {fileID: 865814845244305906, guid: 69ed6ba9bd06bd5408d8ff5be564fe70, type: 3}
    - target: {fileID: 3219882261373274982, guid: 4543a279a327f2344ab3236d77edec9d, type: 3}
      propertyPath: objectManagerPrefab
      value: 
      objectReference: {fileID: 5221466568632454913, guid: 98c3d7b4a5e994e439d0ebaf8d716bb6, type: 3}
    - target: {fileID: 3219882261373274982, guid: 4543a279a327f2344ab3236d77edec9d, type: 3}
      propertyPath: itemRarityManagerPrefab
      value: 
      objectReference: {fileID: 1533885445484502491, guid: 34cce787036c2f44d9b00e067229f543, type: 3}
    - target: {fileID: 3219882261373274982, guid: 4543a279a327f2344ab3236d77edec9d, type: 3}
      propertyPath: itemUpgradeRarityManagerPrefab
      value: 
      objectReference: {fileID: 1533885445484502491, guid: 3db00c55b90617b4b8e1bdcc545ed2d0, type: 3}
    - target: {fileID: 3219882261373274983, guid: 4543a279a327f2344ab3236d77edec9d, type: 3}
      propertyPath: m_RootOrder
      value: 0
      objectReference: {fileID: 0}
    - target: {fileID: 3219882261373274983, guid: 4543a279a327f2344ab3236d77edec9d, type: 3}
      propertyPath: m_LocalPosition.x
      value: 0
      objectReference: {fileID: 0}
    - target: {fileID: 3219882261373274983, guid: 4543a279a327f2344ab3236d77edec9d, type: 3}
      propertyPath: m_LocalPosition.y
      value: 0
      objectReference: {fileID: 0}
    - target: {fileID: 3219882261373274983, guid: 4543a279a327f2344ab3236d77edec9d, type: 3}
      propertyPath: m_LocalPosition.z
      value: 0
      objectReference: {fileID: 0}
    - target: {fileID: 3219882261373274983, guid: 4543a279a327f2344ab3236d77edec9d, type: 3}
      propertyPath: m_LocalRotation.w
      value: 1
      objectReference: {fileID: 0}
    - target: {fileID: 3219882261373274983, guid: 4543a279a327f2344ab3236d77edec9d, type: 3}
      propertyPath: m_LocalRotation.x
      value: 0
      objectReference: {fileID: 0}
    - target: {fileID: 3219882261373274983, guid: 4543a279a327f2344ab3236d77edec9d, type: 3}
      propertyPath: m_LocalRotation.y
      value: 0
      objectReference: {fileID: 0}
    - target: {fileID: 3219882261373274983, guid: 4543a279a327f2344ab3236d77edec9d, type: 3}
      propertyPath: m_LocalRotation.z
      value: 0
      objectReference: {fileID: 0}
    - target: {fileID: 3219882261373274983, guid: 4543a279a327f2344ab3236d77edec9d, type: 3}
      propertyPath: m_LocalEulerAnglesHint.x
      value: 0
      objectReference: {fileID: 0}
    - target: {fileID: 3219882261373274983, guid: 4543a279a327f2344ab3236d77edec9d, type: 3}
      propertyPath: m_LocalEulerAnglesHint.y
      value: 0
      objectReference: {fileID: 0}
    - target: {fileID: 3219882261373274983, guid: 4543a279a327f2344ab3236d77edec9d, type: 3}
      propertyPath: m_LocalEulerAnglesHint.z
      value: 0
      objectReference: {fileID: 0}
    m_RemovedComponents: []
  m_SourcePrefab: {fileID: 100100000, guid: 4543a279a327f2344ab3236d77edec9d, type: 3}
