%YAML 1.1
%TAG !u! tag:unity3d.com,2011:
--- !u!1001 &5061158637325647984
PrefabInstance:
  m_ObjectHideFlags: 0
  serializedVersion: 2
  m_Modification:
    m_TransformParent: {fileID: 0}
    m_Modifications:
    - target: {fileID: 2895894633813103300, guid: 80b2a852dcb3c094099a6fc47908bbc3, type: 3}
      propertyPath: m_RootOrder
      value: 0
      objectReference: {fileID: 0}
    - target: {fileID: 2895894633813103300, guid: 80b2a852dcb3c094099a6fc47908bbc3, type: 3}
      propertyPath: m_LocalPosition.x
      value: 0
      objectReference: {fileID: 0}
    - target: {fileID: 2895894633813103300, guid: 80b2a852dcb3c094099a6fc47908bbc3, type: 3}
      propertyPath: m_LocalPosition.y
      value: 0
      objectReference: {fileID: 0}
    - target: {fileID: 2895894633813103300, guid: 80b2a852dcb3c094099a6fc47908bbc3, type: 3}
      propertyPath: m_LocalPosition.z
      value: 0
      objectReference: {fileID: 0}
    - target: {fileID: 2895894633813103300, guid: 80b2a852dcb3c094099a6fc47908bbc3, type: 3}
      propertyPath: m_LocalRotation.w
      value: 1
      objectReference: {fileID: 0}
    - target: {fileID: 2895894633813103300, guid: 80b2a852dcb3c094099a6fc47908bbc3, type: 3}
      propertyPath: m_LocalRotation.x
      value: 0
      objectReference: {fileID: 0}
    - target: {fileID: 2895894633813103300, guid: 80b2a852dcb3c094099a6fc47908bbc3, type: 3}
      propertyPath: m_LocalRotation.y
      value: 0
      objectReference: {fileID: 0}
    - target: {fileID: 2895894633813103300, guid: 80b2a852dcb3c094099a6fc47908bbc3, type: 3}
      propertyPath: m_LocalRotation.z
      value: 0
      objectReference: {fileID: 0}
    - target: {fileID: 2895894633813103300, guid: 80b2a852dcb3c094099a6fc47908bbc3, type: 3}
      propertyPath: m_LocalEulerAnglesHint.x
      value: 0
      objectReference: {fileID: 0}
    - target: {fileID: 2895894633813103300, guid: 80b2a852dcb3c094099a6fc47908bbc3, type: 3}
      propertyPath: m_LocalEulerAnglesHint.y
      value: 0
      objectReference: {fileID: 0}
    - target: {fileID: 2895894633813103300, guid: 80b2a852dcb3c094099a6fc47908bbc3, type: 3}
      propertyPath: m_LocalEulerAnglesHint.z
      value: 0
      objectReference: {fileID: 0}
    - target: {fileID: 6834967961115933942, guid: 80b2a852dcb3c094099a6fc47908bbc3, type: 3}
      propertyPath: m_Name
      value: BasicSwordAttack
      objectReference: {fileID: 0}
    - target: {fileID: 7107364320528318716, guid: 80b2a852dcb3c094099a6fc47908bbc3, type: 3}
      propertyPath: initialRange
      value: 3.5
      objectReference: {fileID: 0}
    m_RemovedComponents: []
  m_SourcePrefab: {fileID: 100100000, guid: 80b2a852dcb3c094099a6fc47908bbc3, type: 3}
--- !u!1 &1794253247877201030 stripped
GameObject:
  m_CorrespondingSourceObject: {fileID: 6834967961115933942, guid: 80b2a852dcb3c094099a6fc47908bbc3, type: 3}
  m_PrefabInstance: {fileID: 5061158637325647984}
  m_PrefabAsset: {fileID: 0}
--- !u!114 &4691413618854510435
MonoBehaviour:
  m_ObjectHideFlags: 0
  m_CorrespondingSourceObject: {fileID: 0}
  m_PrefabInstance: {fileID: 0}
  m_PrefabAsset: {fileID: 0}
  m_GameObject: {fileID: 1794253247877201030}
  m_Enabled: 1
  m_EditorHideFlags: 0
  m_Script: {fileID: 11500000, guid: 89cf9f355f51aba408bbe86cb22ee7dc, type: 3}
  m_Name: 
  m_EditorClassIdentifier: 
  isUpgrade: 0
  upgradeRarity: 0
  mode: 1
  rangeIncrease: 0.5
  shouldReverseRangeModification: 1
  increaseDuration: 1.3
  useMinRange: 0
  minRange: 0
--- !u!114 &5020694379689772367
MonoBehaviour:
  m_ObjectHideFlags: 0
  m_CorrespondingSourceObject: {fileID: 0}
  m_PrefabInstance: {fileID: 0}
  m_PrefabAsset: {fileID: 0}
  m_GameObject: {fileID: 1794253247877201030}
  m_Enabled: 1
  m_EditorHideFlags: 0
  m_Script: {fileID: 11500000, guid: 917158cf050b3af428dd9ee43ba81d98, type: 3}
  m_Name: 
  m_EditorClassIdentifier: 
  isUpgrade: 0
  upgradeRarity: 0
  mode: 1
  invulnerabilityMode: 0
  duration: 0.3
--- !u!114 &6647015849355558836
MonoBehaviour:
  m_ObjectHideFlags: 0
  m_CorrespondingSourceObject: {fileID: 0}
  m_PrefabInstance: {fileID: 0}
  m_PrefabAsset: {fileID: 0}
  m_GameObject: {fileID: 1794253247877201030}
  m_Enabled: 1
  m_EditorHideFlags: 0
  m_Script: {fileID: 11500000, guid: 313bf8bbd2cf09546b20af796b054f01, type: 3}
  m_Name: 
  m_EditorClassIdentifier: 
  isUpgrade: 0
  upgradeRarity: 0
  mode: 1
  teleport: 0
