%YAML 1.1
%TAG !u! tag:unity3d.com,2011:
--- !u!1001 &940801050628934812
PrefabInstance:
  m_ObjectHideFlags: 0
  serializedVersion: 2
  m_Modification:
    m_TransformParent: {fileID: 0}
    m_Modifications:
    - target: {fileID: 3076781291158901818, guid: 2a823ad7b18467343915d549cbbda6a6, type: 3}
      propertyPath: m_RootOrder
      value: 0
      objectReference: {fileID: 0}
    - target: {fileID: 3076781291158901818, guid: 2a823ad7b18467343915d549cbbda6a6, type: 3}
      propertyPath: m_LocalScale.x
      value: 6
      objectReference: {fileID: 0}
    - target: {fileID: 3076781291158901818, guid: 2a823ad7b18467343915d549cbbda6a6, type: 3}
      propertyPath: m_LocalScale.y
      value: 6
      objectReference: {fileID: 0}
    - target: {fileID: 3076781291158901818, guid: 2a823ad7b18467343915d549cbbda6a6, type: 3}
      propertyPath: m_LocalScale.z
      value: 6
      objectReference: {fileID: 0}
    - target: {fileID: 3076781291158901818, guid: 2a823ad7b18467343915d549cbbda6a6, type: 3}
      propertyPath: m_LocalPosition.x
      value: 0
      objectReference: {fileID: 0}
    - target: {fileID: 3076781291158901818, guid: 2a823ad7b18467343915d549cbbda6a6, type: 3}
      propertyPath: m_LocalPosition.y
      value: 0
      objectReference: {fileID: 0}
    - target: {fileID: 3076781291158901818, guid: 2a823ad7b18467343915d549cbbda6a6, type: 3}
      propertyPath: m_LocalPosition.z
      value: 0
      objectReference: {fileID: 0}
    - target: {fileID: 3076781291158901818, guid: 2a823ad7b18467343915d549cbbda6a6, type: 3}
      propertyPath: m_LocalRotation.w
      value: 1
      objectReference: {fileID: 0}
    - target: {fileID: 3076781291158901818, guid: 2a823ad7b18467343915d549cbbda6a6, type: 3}
      propertyPath: m_LocalRotation.x
      value: 0
      objectReference: {fileID: 0}
    - target: {fileID: 3076781291158901818, guid: 2a823ad7b18467343915d549cbbda6a6, type: 3}
      propertyPath: m_LocalRotation.y
      value: 0
      objectReference: {fileID: 0}
    - target: {fileID: 3076781291158901818, guid: 2a823ad7b18467343915d549cbbda6a6, type: 3}
      propertyPath: m_LocalRotation.z
      value: 0
      objectReference: {fileID: 0}
    - target: {fileID: 3076781291158901818, guid: 2a823ad7b18467343915d549cbbda6a6, type: 3}
      propertyPath: m_LocalEulerAnglesHint.x
      value: 0
      objectReference: {fileID: 0}
    - target: {fileID: 3076781291158901818, guid: 2a823ad7b18467343915d549cbbda6a6, type: 3}
      propertyPath: m_LocalEulerAnglesHint.y
      value: 0
      objectReference: {fileID: 0}
    - target: {fileID: 3076781291158901818, guid: 2a823ad7b18467343915d549cbbda6a6, type: 3}
      propertyPath: m_LocalEulerAnglesHint.z
      value: 0
      objectReference: {fileID: 0}
    - target: {fileID: 6654081361470978568, guid: 2a823ad7b18467343915d549cbbda6a6, type: 3}
      propertyPath: m_Name
      value: SpearAttack
      objectReference: {fileID: 0}
    - target: {fileID: 6926759060571915778, guid: 2a823ad7b18467343915d549cbbda6a6, type: 3}
      propertyPath: range
      value: 6
      objectReference: {fileID: 0}
    - target: {fileID: 6926759060571915778, guid: 2a823ad7b18467343915d549cbbda6a6, type: 3}
      propertyPath: initialRange
      value: 6
      objectReference: {fileID: 0}
    - target: {fileID: 7401909177229781747, guid: 2a823ad7b18467343915d549cbbda6a6, type: 3}
      propertyPath: rangeIncreaseSpeed
      value: 4
      objectReference: {fileID: 0}
    - target: {fileID: 7815144629377962359, guid: 2a823ad7b18467343915d549cbbda6a6, type: 3}
      propertyPath: mode
      value: 1
      objectReference: {fileID: 0}
    - target: {fileID: 7815144629377962359, guid: 2a823ad7b18467343915d549cbbda6a6, type: 3}
      propertyPath: rangeIncrease
      value: -2
      objectReference: {fileID: 0}
    m_RemovedComponents: []
  m_SourcePrefab: {fileID: 100100000, guid: 2a823ad7b18467343915d549cbbda6a6, type: 3}
--- !u!1 &5860993102374450836 stripped
GameObject:
  m_CorrespondingSourceObject: {fileID: 6654081361470978568, guid: 2a823ad7b18467343915d549cbbda6a6, type: 3}
  m_PrefabInstance: {fileID: 940801050628934812}
  m_PrefabAsset: {fileID: 0}
--- !u!114 &2373044444187889300
MonoBehaviour:
  m_ObjectHideFlags: 0
  m_CorrespondingSourceObject: {fileID: 0}
  m_PrefabInstance: {fileID: 0}
  m_PrefabAsset: {fileID: 0}
  m_GameObject: {fileID: 5860993102374450836}
  m_Enabled: 1
  m_EditorHideFlags: 0
  m_Script: {fileID: 11500000, guid: 917158cf050b3af428dd9ee43ba81d98, type: 3}
  m_Name: 
  m_EditorClassIdentifier: 
  isUpgrade: 0
  upgradeRarity: 0
  mode: 1
  invulnerabilityMode: 0
  duration: 0.4
--- !u!114 &5598776239767574936
MonoBehaviour:
  m_ObjectHideFlags: 0
  m_CorrespondingSourceObject: {fileID: 0}
  m_PrefabInstance: {fileID: 0}
  m_PrefabAsset: {fileID: 0}
  m_GameObject: {fileID: 5860993102374450836}
  m_Enabled: 1
  m_EditorHideFlags: 0
  m_Script: {fileID: 11500000, guid: aed2407639f45274092f5ac863d662a9, type: 3}
  m_Name: 
  m_EditorClassIdentifier: 
  isUpgrade: 0
  upgradeRarity: 0
  mode: 1
  teleport: 0
