%YAML 1.1
%TAG !u! tag:unity3d.com,2011:
--- !u!1001 &8005035930456668605
PrefabInstance:
  m_ObjectHideFlags: 0
  serializedVersion: 2
  m_Modification:
    m_TransformParent: {fileID: 0}
    m_Modifications:
    - target: {fileID: 890679620238708264, guid: 4b8f6fbebf374ac4e940f1f9d60b0e15, type: 3}
      propertyPath: m_RootOrder
      value: 0
      objectReference: {fileID: 0}
    - target: {fileID: 890679620238708264, guid: 4b8f6fbebf374ac4e940f1f9d60b0e15, type: 3}
      propertyPath: m_LocalPosition.x
      value: 0
      objectReference: {fileID: 0}
    - target: {fileID: 890679620238708264, guid: 4b8f6fbebf374ac4e940f1f9d60b0e15, type: 3}
      propertyPath: m_LocalPosition.y
      value: 0
      objectReference: {fileID: 0}
    - target: {fileID: 890679620238708264, guid: 4b8f6fbebf374ac4e940f1f9d60b0e15, type: 3}
      propertyPath: m_LocalPosition.z
      value: 0
      objectReference: {fileID: 0}
    - target: {fileID: 890679620238708264, guid: 4b8f6fbebf374ac4e940f1f9d60b0e15, type: 3}
      propertyPath: m_LocalRotation.w
      value: 1
      objectReference: {fileID: 0}
    - target: {fileID: 890679620238708264, guid: 4b8f6fbebf374ac4e940f1f9d60b0e15, type: 3}
      propertyPath: m_LocalRotation.x
      value: 0
      objectReference: {fileID: 0}
    - target: {fileID: 890679620238708264, guid: 4b8f6fbebf374ac4e940f1f9d60b0e15, type: 3}
      propertyPath: m_LocalRotation.y
      value: 0
      objectReference: {fileID: 0}
    - target: {fileID: 890679620238708264, guid: 4b8f6fbebf374ac4e940f1f9d60b0e15, type: 3}
      propertyPath: m_LocalRotation.z
      value: 0
      objectReference: {fileID: 0}
    - target: {fileID: 890679620238708264, guid: 4b8f6fbebf374ac4e940f1f9d60b0e15, type: 3}
      propertyPath: m_LocalEulerAnglesHint.x
      value: 0
      objectReference: {fileID: 0}
    - target: {fileID: 890679620238708264, guid: 4b8f6fbebf374ac4e940f1f9d60b0e15, type: 3}
      propertyPath: m_LocalEulerAnglesHint.y
      value: 0
      objectReference: {fileID: 0}
    - target: {fileID: 890679620238708264, guid: 4b8f6fbebf374ac4e940f1f9d60b0e15, type: 3}
      propertyPath: m_LocalEulerAnglesHint.z
      value: 0
      objectReference: {fileID: 0}
    - target: {fileID: 890679620238708267, guid: 4b8f6fbebf374ac4e940f1f9d60b0e15, type: 3}
      propertyPath: m_Name
      value: BrisableObject_Box
      objectReference: {fileID: 0}
    - target: {fileID: 4288887986268838152, guid: 4b8f6fbebf374ac4e940f1f9d60b0e15, type: 3}
      propertyPath: m_Sprite
      value: 
      objectReference: {fileID: -348369682, guid: 87adabe01efcf3145ab7217e01fc1451, type: 3}
    - target: {fileID: 4288887986268838155, guid: 4b8f6fbebf374ac4e940f1f9d60b0e15, type: 3}
      propertyPath: m_LocalScale.x
      value: 1.5
      objectReference: {fileID: 0}
    - target: {fileID: 4288887986268838155, guid: 4b8f6fbebf374ac4e940f1f9d60b0e15, type: 3}
      propertyPath: m_LocalScale.y
      value: 1.5
      objectReference: {fileID: 0}
    - target: {fileID: 4288887986268838155, guid: 4b8f6fbebf374ac4e940f1f9d60b0e15, type: 3}
      propertyPath: m_LocalScale.z
      value: 1.5
      objectReference: {fileID: 0}
    - target: {fileID: 4288887986268838155, guid: 4b8f6fbebf374ac4e940f1f9d60b0e15, type: 3}
      propertyPath: m_LocalPosition.y
      value: 0.29
      objectReference: {fileID: 0}
    m_RemovedComponents: []
  m_SourcePrefab: {fileID: 100100000, guid: 4b8f6fbebf374ac4e940f1f9d60b0e15, type: 3}
