%YAML 1.1
%TAG !u! tag:unity3d.com,2011:
--- !u!1045 &1
EditorBuildSettings:
  m_ObjectHideFlags: 0
  serializedVersion: 2
  m_Scenes:
  - enabled: 1
    path: Assets/Scenes/TestScene/TestScene.unity
    guid: 2cda990e2423bbf4892e6590ba056729
  - enabled: 1
    path: Assets/Scenes/TheAcademy/1/TheAcademy_1.unity
    guid: b82283b63fed9924a8a249237c24aab2
  - enabled: 1
    path: Assets/Scenes/TheAcademy/2/TheAcademy_2.unity
    guid: 62a1dcc034361c54bbc651553aafaaf6
  - enabled: 1
    path: Assets/Scenes/TheAcademy/3/TheAcademy_3.unity
    guid: 885a9086ab56fe74f8a49c8eece5ee0d
  - enabled: 1
    path: Assets/Scenes/TheAcademy/4/TheAcademy_4.unity
    guid: 58846ccbb1a8e144294d8725d1779eea
  - enabled: 1
    path: Assets/Scenes/TheForest/1/TheForest_1.unity
    guid: d54e882d578b49a4c8850e8484668b2b
  - enabled: 1
    path: Assets/Scenes/TheForest/2/TheForest_2.unity
    guid: ab95128265ba5384cbc04b08e37b3324
  - enabled: 1
    path: Assets/Scenes/TheForest/3/TheForest_3.unity
    guid: 57360ecefebbfe74a8f8059454a3bcf5
  m_configObjects: {}
