%YAML 1.1
%TAG !u! tag:unity3d.com,2011:
--- !u!1 &887336752529192812
GameObject:
  m_ObjectHideFlags: 0
  m_CorrespondingSourceObject: {fileID: 0}
  m_PrefabInstance: {fileID: 0}
  m_PrefabAsset: {fileID: 0}
  serializedVersion: 6
  m_Component:
  - component: {fileID: 4066913898361156698}
  - component: {fileID: 3212611176949593073}
  - component: {fileID: 2301012379759421842}
  m_Layer: 0
  m_Name: Layer1
  m_TagString: Untagged
  m_Icon: {fileID: 0}
  m_NavMeshLayer: 0
  m_StaticEditorFlags: 0
  m_IsActive: 1
--- !u!4 &4066913898361156698
Transform:
  m_ObjectHideFlags: 0
  m_CorrespondingSourceObject: {fileID: 0}
  m_PrefabInstance: {fileID: 0}
  m_PrefabAsset: {fileID: 0}
  m_GameObject: {fileID: 887336752529192812}
  m_LocalRotation: {x: -0, y: -0, z: -0, w: 1}
  m_LocalPosition: {x: 0, y: 0, z: 0}
  m_LocalScale: {x: 1, y: 1, z: 1}
  m_ConstrainProportionsScale: 0
  m_Children: []
  m_Father: {fileID: 4673510387064748791}
  m_RootOrder: 0
  m_LocalEulerAnglesHint: {x: 0, y: 0, z: 0}
--- !u!1839735485 &3212611176949593073
Tilemap:
  m_ObjectHideFlags: 0
  m_CorrespondingSourceObject: {fileID: 0}
  m_PrefabInstance: {fileID: 0}
  m_PrefabAsset: {fileID: 0}
  m_GameObject: {fileID: 887336752529192812}
  m_Enabled: 1
  m_Tiles:
  - first: {x: -1, y: -7, z: 0}
    second:
      serializedVersion: 2
      m_TileIndex: 49
      m_TileSpriteIndex: 49
      m_TileMatrixIndex: 0
      m_TileColorIndex: 0
      m_TileObjectToInstantiateIndex: 65535
      dummyAlignment: 0
      m_AllTileFlags: 1073741825
  - first: {x: 0, y: -7, z: 0}
    second:
      serializedVersion: 2
      m_TileIndex: 50
      m_TileSpriteIndex: 50
      m_TileMatrixIndex: 0
      m_TileColorIndex: 0
      m_TileObjectToInstantiateIndex: 65535
      dummyAlignment: 0
      m_AllTileFlags: 1073741825
  - first: {x: 1, y: -7, z: 0}
    second:
      serializedVersion: 2
      m_TileIndex: 51
      m_TileSpriteIndex: 51
      m_TileMatrixIndex: 0
      m_TileColorIndex: 0
      m_TileObjectToInstantiateIndex: 65535
      dummyAlignment: 0
      m_AllTileFlags: 1073741825
  - first: {x: 2, y: -7, z: 0}
    second:
      serializedVersion: 2
      m_TileIndex: 52
      m_TileSpriteIndex: 52
      m_TileMatrixIndex: 0
      m_TileColorIndex: 0
      m_TileObjectToInstantiateIndex: 65535
      dummyAlignment: 0
      m_AllTileFlags: 1073741825
  - first: {x: 3, y: -7, z: 0}
    second:
      serializedVersion: 2
      m_TileIndex: 53
      m_TileSpriteIndex: 53
      m_TileMatrixIndex: 0
      m_TileColorIndex: 0
      m_TileObjectToInstantiateIndex: 65535
      dummyAlignment: 0
      m_AllTileFlags: 1073741825
  - first: {x: 4, y: -7, z: 0}
    second:
      serializedVersion: 2
      m_TileIndex: 54
      m_TileSpriteIndex: 54
      m_TileMatrixIndex: 0
      m_TileColorIndex: 0
      m_TileObjectToInstantiateIndex: 65535
      dummyAlignment: 0
      m_AllTileFlags: 1073741825
  - first: {x: -1, y: -6, z: 0}
    second:
      serializedVersion: 2
      m_TileIndex: 42
      m_TileSpriteIndex: 42
      m_TileMatrixIndex: 0
      m_TileColorIndex: 0
      m_TileObjectToInstantiateIndex: 65535
      dummyAlignment: 0
      m_AllTileFlags: 1073741825
  - first: {x: 0, y: -6, z: 0}
    second:
      serializedVersion: 2
      m_TileIndex: 43
      m_TileSpriteIndex: 43
      m_TileMatrixIndex: 0
      m_TileColorIndex: 0
      m_TileObjectToInstantiateIndex: 65535
      dummyAlignment: 0
      m_AllTileFlags: 1073741825
  - first: {x: 1, y: -6, z: 0}
    second:
      serializedVersion: 2
      m_TileIndex: 44
      m_TileSpriteIndex: 44
      m_TileMatrixIndex: 0
      m_TileColorIndex: 0
      m_TileObjectToInstantiateIndex: 65535
      dummyAlignment: 0
      m_AllTileFlags: 1073741825
  - first: {x: 2, y: -6, z: 0}
    second:
      serializedVersion: 2
      m_TileIndex: 45
      m_TileSpriteIndex: 45
      m_TileMatrixIndex: 0
      m_TileColorIndex: 0
      m_TileObjectToInstantiateIndex: 65535
      dummyAlignment: 0
      m_AllTileFlags: 1073741825
  - first: {x: 3, y: -6, z: 0}
    second:
      serializedVersion: 2
      m_TileIndex: 46
      m_TileSpriteIndex: 46
      m_TileMatrixIndex: 0
      m_TileColorIndex: 0
      m_TileObjectToInstantiateIndex: 65535
      dummyAlignment: 0
      m_AllTileFlags: 1073741825
  - first: {x: 4, y: -6, z: 0}
    second:
      serializedVersion: 2
      m_TileIndex: 47
      m_TileSpriteIndex: 47
      m_TileMatrixIndex: 0
      m_TileColorIndex: 0
      m_TileObjectToInstantiateIndex: 65535
      dummyAlignment: 0
      m_AllTileFlags: 1073741825
  - first: {x: 5, y: -6, z: 0}
    second:
      serializedVersion: 2
      m_TileIndex: 48
      m_TileSpriteIndex: 48
      m_TileMatrixIndex: 0
      m_TileColorIndex: 0
      m_TileObjectToInstantiateIndex: 65535
      dummyAlignment: 0
      m_AllTileFlags: 1073741825
  - first: {x: -1, y: -5, z: 0}
    second:
      serializedVersion: 2
      m_TileIndex: 35
      m_TileSpriteIndex: 35
      m_TileMatrixIndex: 0
      m_TileColorIndex: 0
      m_TileObjectToInstantiateIndex: 65535
      dummyAlignment: 0
      m_AllTileFlags: 1073741825
  - first: {x: 0, y: -5, z: 0}
    second:
      serializedVersion: 2
      m_TileIndex: 36
      m_TileSpriteIndex: 36
      m_TileMatrixIndex: 0
      m_TileColorIndex: 0
      m_TileObjectToInstantiateIndex: 65535
      dummyAlignment: 0
      m_AllTileFlags: 1073741825
  - first: {x: 1, y: -5, z: 0}
    second:
      serializedVersion: 2
      m_TileIndex: 37
      m_TileSpriteIndex: 37
      m_TileMatrixIndex: 0
      m_TileColorIndex: 0
      m_TileObjectToInstantiateIndex: 65535
      dummyAlignment: 0
      m_AllTileFlags: 1073741825
  - first: {x: 2, y: -5, z: 0}
    second:
      serializedVersion: 2
      m_TileIndex: 38
      m_TileSpriteIndex: 38
      m_TileMatrixIndex: 0
      m_TileColorIndex: 0
      m_TileObjectToInstantiateIndex: 65535
      dummyAlignment: 0
      m_AllTileFlags: 1073741825
  - first: {x: 3, y: -5, z: 0}
    second:
      serializedVersion: 2
      m_TileIndex: 39
      m_TileSpriteIndex: 39
      m_TileMatrixIndex: 0
      m_TileColorIndex: 0
      m_TileObjectToInstantiateIndex: 65535
      dummyAlignment: 0
      m_AllTileFlags: 1073741825
  - first: {x: 4, y: -5, z: 0}
    second:
      serializedVersion: 2
      m_TileIndex: 40
      m_TileSpriteIndex: 40
      m_TileMatrixIndex: 0
      m_TileColorIndex: 0
      m_TileObjectToInstantiateIndex: 65535
      dummyAlignment: 0
      m_AllTileFlags: 1073741825
  - first: {x: 5, y: -5, z: 0}
    second:
      serializedVersion: 2
      m_TileIndex: 41
      m_TileSpriteIndex: 41
      m_TileMatrixIndex: 0
      m_TileColorIndex: 0
      m_TileObjectToInstantiateIndex: 65535
      dummyAlignment: 0
      m_AllTileFlags: 1073741825
  - first: {x: -1, y: -4, z: 0}
    second:
      serializedVersion: 2
      m_TileIndex: 28
      m_TileSpriteIndex: 28
      m_TileMatrixIndex: 0
      m_TileColorIndex: 0
      m_TileObjectToInstantiateIndex: 65535
      dummyAlignment: 0
      m_AllTileFlags: 1073741825
  - first: {x: 0, y: -4, z: 0}
    second:
      serializedVersion: 2
      m_TileIndex: 29
      m_TileSpriteIndex: 29
      m_TileMatrixIndex: 0
      m_TileColorIndex: 0
      m_TileObjectToInstantiateIndex: 65535
      dummyAlignment: 0
      m_AllTileFlags: 1073741825
  - first: {x: 1, y: -4, z: 0}
    second:
      serializedVersion: 2
      m_TileIndex: 30
      m_TileSpriteIndex: 30
      m_TileMatrixIndex: 0
      m_TileColorIndex: 0
      m_TileObjectToInstantiateIndex: 65535
      dummyAlignment: 0
      m_AllTileFlags: 1073741825
  - first: {x: 2, y: -4, z: 0}
    second:
      serializedVersion: 2
      m_TileIndex: 31
      m_TileSpriteIndex: 31
      m_TileMatrixIndex: 0
      m_TileColorIndex: 0
      m_TileObjectToInstantiateIndex: 65535
      dummyAlignment: 0
      m_AllTileFlags: 1073741825
  - first: {x: 3, y: -4, z: 0}
    second:
      serializedVersion: 2
      m_TileIndex: 32
      m_TileSpriteIndex: 32
      m_TileMatrixIndex: 0
      m_TileColorIndex: 0
      m_TileObjectToInstantiateIndex: 65535
      dummyAlignment: 0
      m_AllTileFlags: 1073741825
  - first: {x: 4, y: -4, z: 0}
    second:
      serializedVersion: 2
      m_TileIndex: 33
      m_TileSpriteIndex: 33
      m_TileMatrixIndex: 0
      m_TileColorIndex: 0
      m_TileObjectToInstantiateIndex: 65535
      dummyAlignment: 0
      m_AllTileFlags: 1073741825
  - first: {x: 5, y: -4, z: 0}
    second:
      serializedVersion: 2
      m_TileIndex: 34
      m_TileSpriteIndex: 34
      m_TileMatrixIndex: 0
      m_TileColorIndex: 0
      m_TileObjectToInstantiateIndex: 65535
      dummyAlignment: 0
      m_AllTileFlags: 1073741825
  - first: {x: -1, y: -3, z: 0}
    second:
      serializedVersion: 2
      m_TileIndex: 21
      m_TileSpriteIndex: 21
      m_TileMatrixIndex: 0
      m_TileColorIndex: 0
      m_TileObjectToInstantiateIndex: 65535
      dummyAlignment: 0
      m_AllTileFlags: 1073741825
  - first: {x: 0, y: -3, z: 0}
    second:
      serializedVersion: 2
      m_TileIndex: 22
      m_TileSpriteIndex: 22
      m_TileMatrixIndex: 0
      m_TileColorIndex: 0
      m_TileObjectToInstantiateIndex: 65535
      dummyAlignment: 0
      m_AllTileFlags: 1073741825
  - first: {x: 1, y: -3, z: 0}
    second:
      serializedVersion: 2
      m_TileIndex: 23
      m_TileSpriteIndex: 23
      m_TileMatrixIndex: 0
      m_TileColorIndex: 0
      m_TileObjectToInstantiateIndex: 65535
      dummyAlignment: 0
      m_AllTileFlags: 1073741825
  - first: {x: 2, y: -3, z: 0}
    second:
      serializedVersion: 2
      m_TileIndex: 24
      m_TileSpriteIndex: 24
      m_TileMatrixIndex: 0
      m_TileColorIndex: 0
      m_TileObjectToInstantiateIndex: 65535
      dummyAlignment: 0
      m_AllTileFlags: 1073741825
  - first: {x: 3, y: -3, z: 0}
    second:
      serializedVersion: 2
      m_TileIndex: 25
      m_TileSpriteIndex: 25
      m_TileMatrixIndex: 0
      m_TileColorIndex: 0
      m_TileObjectToInstantiateIndex: 65535
      dummyAlignment: 0
      m_AllTileFlags: 1073741825
  - first: {x: 4, y: -3, z: 0}
    second:
      serializedVersion: 2
      m_TileIndex: 26
      m_TileSpriteIndex: 26
      m_TileMatrixIndex: 0
      m_TileColorIndex: 0
      m_TileObjectToInstantiateIndex: 65535
      dummyAlignment: 0
      m_AllTileFlags: 1073741825
  - first: {x: 5, y: -3, z: 0}
    second:
      serializedVersion: 2
      m_TileIndex: 27
      m_TileSpriteIndex: 27
      m_TileMatrixIndex: 0
      m_TileColorIndex: 0
      m_TileObjectToInstantiateIndex: 65535
      dummyAlignment: 0
      m_AllTileFlags: 1073741825
  - first: {x: -1, y: -2, z: 0}
    second:
      serializedVersion: 2
      m_TileIndex: 14
      m_TileSpriteIndex: 14
      m_TileMatrixIndex: 0
      m_TileColorIndex: 0
      m_TileObjectToInstantiateIndex: 65535
      dummyAlignment: 0
      m_AllTileFlags: 1073741825
  - first: {x: 0, y: -2, z: 0}
    second:
      serializedVersion: 2
      m_TileIndex: 15
      m_TileSpriteIndex: 15
      m_TileMatrixIndex: 0
      m_TileColorIndex: 0
      m_TileObjectToInstantiateIndex: 65535
      dummyAlignment: 0
      m_AllTileFlags: 1073741825
  - first: {x: 1, y: -2, z: 0}
    second:
      serializedVersion: 2
      m_TileIndex: 16
      m_TileSpriteIndex: 16
      m_TileMatrixIndex: 0
      m_TileColorIndex: 0
      m_TileObjectToInstantiateIndex: 65535
      dummyAlignment: 0
      m_AllTileFlags: 1073741825
  - first: {x: 2, y: -2, z: 0}
    second:
      serializedVersion: 2
      m_TileIndex: 17
      m_TileSpriteIndex: 17
      m_TileMatrixIndex: 0
      m_TileColorIndex: 0
      m_TileObjectToInstantiateIndex: 65535
      dummyAlignment: 0
      m_AllTileFlags: 1073741825
  - first: {x: 3, y: -2, z: 0}
    second:
      serializedVersion: 2
      m_TileIndex: 18
      m_TileSpriteIndex: 18
      m_TileMatrixIndex: 0
      m_TileColorIndex: 0
      m_TileObjectToInstantiateIndex: 65535
      dummyAlignment: 0
      m_AllTileFlags: 1073741825
  - first: {x: 4, y: -2, z: 0}
    second:
      serializedVersion: 2
      m_TileIndex: 19
      m_TileSpriteIndex: 19
      m_TileMatrixIndex: 0
      m_TileColorIndex: 0
      m_TileObjectToInstantiateIndex: 65535
      dummyAlignment: 0
      m_AllTileFlags: 1073741825
  - first: {x: 5, y: -2, z: 0}
    second:
      serializedVersion: 2
      m_TileIndex: 20
      m_TileSpriteIndex: 20
      m_TileMatrixIndex: 0
      m_TileColorIndex: 0
      m_TileObjectToInstantiateIndex: 65535
      dummyAlignment: 0
      m_AllTileFlags: 1073741825
  - first: {x: -1, y: -1, z: 0}
    second:
      serializedVersion: 2
      m_TileIndex: 7
      m_TileSpriteIndex: 7
      m_TileMatrixIndex: 0
      m_TileColorIndex: 0
      m_TileObjectToInstantiateIndex: 65535
      dummyAlignment: 0
      m_AllTileFlags: 1073741825
  - first: {x: 0, y: -1, z: 0}
    second:
      serializedVersion: 2
      m_TileIndex: 8
      m_TileSpriteIndex: 8
      m_TileMatrixIndex: 0
      m_TileColorIndex: 0
      m_TileObjectToInstantiateIndex: 65535
      dummyAlignment: 0
      m_AllTileFlags: 1073741825
  - first: {x: 1, y: -1, z: 0}
    second:
      serializedVersion: 2
      m_TileIndex: 9
      m_TileSpriteIndex: 9
      m_TileMatrixIndex: 0
      m_TileColorIndex: 0
      m_TileObjectToInstantiateIndex: 65535
      dummyAlignment: 0
      m_AllTileFlags: 1073741825
  - first: {x: 2, y: -1, z: 0}
    second:
      serializedVersion: 2
      m_TileIndex: 10
      m_TileSpriteIndex: 10
      m_TileMatrixIndex: 0
      m_TileColorIndex: 0
      m_TileObjectToInstantiateIndex: 65535
      dummyAlignment: 0
      m_AllTileFlags: 1073741825
  - first: {x: 3, y: -1, z: 0}
    second:
      serializedVersion: 2
      m_TileIndex: 11
      m_TileSpriteIndex: 11
      m_TileMatrixIndex: 0
      m_TileColorIndex: 0
      m_TileObjectToInstantiateIndex: 65535
      dummyAlignment: 0
      m_AllTileFlags: 1073741825
  - first: {x: 4, y: -1, z: 0}
    second:
      serializedVersion: 2
      m_TileIndex: 12
      m_TileSpriteIndex: 12
      m_TileMatrixIndex: 0
      m_TileColorIndex: 0
      m_TileObjectToInstantiateIndex: 65535
      dummyAlignment: 0
      m_AllTileFlags: 1073741825
  - first: {x: 5, y: -1, z: 0}
    second:
      serializedVersion: 2
      m_TileIndex: 13
      m_TileSpriteIndex: 13
      m_TileMatrixIndex: 0
      m_TileColorIndex: 0
      m_TileObjectToInstantiateIndex: 65535
      dummyAlignment: 0
      m_AllTileFlags: 1073741825
  - first: {x: -1, y: 0, z: 0}
    second:
      serializedVersion: 2
      m_TileIndex: 0
      m_TileSpriteIndex: 0
      m_TileMatrixIndex: 0
      m_TileColorIndex: 0
      m_TileObjectToInstantiateIndex: 65535
      dummyAlignment: 0
      m_AllTileFlags: 1073741825
  - first: {x: 0, y: 0, z: 0}
    second:
      serializedVersion: 2
      m_TileIndex: 1
      m_TileSpriteIndex: 1
      m_TileMatrixIndex: 0
      m_TileColorIndex: 0
      m_TileObjectToInstantiateIndex: 65535
      dummyAlignment: 0
      m_AllTileFlags: 1073741825
  - first: {x: 1, y: 0, z: 0}
    second:
      serializedVersion: 2
      m_TileIndex: 2
      m_TileSpriteIndex: 2
      m_TileMatrixIndex: 0
      m_TileColorIndex: 0
      m_TileObjectToInstantiateIndex: 65535
      dummyAlignment: 0
      m_AllTileFlags: 1073741825
  - first: {x: 2, y: 0, z: 0}
    second:
      serializedVersion: 2
      m_TileIndex: 3
      m_TileSpriteIndex: 3
      m_TileMatrixIndex: 0
      m_TileColorIndex: 0
      m_TileObjectToInstantiateIndex: 65535
      dummyAlignment: 0
      m_AllTileFlags: 1073741825
  - first: {x: 3, y: 0, z: 0}
    second:
      serializedVersion: 2
      m_TileIndex: 4
      m_TileSpriteIndex: 4
      m_TileMatrixIndex: 0
      m_TileColorIndex: 0
      m_TileObjectToInstantiateIndex: 65535
      dummyAlignment: 0
      m_AllTileFlags: 1073741825
  - first: {x: 4, y: 0, z: 0}
    second:
      serializedVersion: 2
      m_TileIndex: 5
      m_TileSpriteIndex: 5
      m_TileMatrixIndex: 0
      m_TileColorIndex: 0
      m_TileObjectToInstantiateIndex: 65535
      dummyAlignment: 0
      m_AllTileFlags: 1073741825
  - first: {x: 5, y: 0, z: 0}
    second:
      serializedVersion: 2
      m_TileIndex: 6
      m_TileSpriteIndex: 6
      m_TileMatrixIndex: 0
      m_TileColorIndex: 0
      m_TileObjectToInstantiateIndex: 65535
      dummyAlignment: 0
      m_AllTileFlags: 1073741825
  m_AnimatedTiles: {}
  m_TileAssetArray:
  - m_RefCount: 1
    m_Data: {fileID: 11400000, guid: 97262d484a9f4e54da298a9fe5b32128, type: 2}
  - m_RefCount: 1
    m_Data: {fileID: 11400000, guid: 67adf18d214d7044399f63007638e3b8, type: 2}
  - m_RefCount: 1
    m_Data: {fileID: 11400000, guid: 36012f44cafceec49bd53daa8fb0542f, type: 2}
  - m_RefCount: 1
    m_Data: {fileID: 11400000, guid: 7570962058d51cd4194cbf3513b9eb97, type: 2}
  - m_RefCount: 1
    m_Data: {fileID: 11400000, guid: 0ccd62819007ca446997c0195bdb5079, type: 2}
  - m_RefCount: 1
    m_Data: {fileID: 11400000, guid: bf977573b9c24af49880589e54e490f8, type: 2}
  - m_RefCount: 1
    m_Data: {fileID: 11400000, guid: 1784e836a6fa7fd4981e811e219e4e28, type: 2}
  - m_RefCount: 1
    m_Data: {fileID: 11400000, guid: a2457051285bb05448d2874e7de6501e, type: 2}
  - m_RefCount: 1
    m_Data: {fileID: 11400000, guid: b625e416bf2cf8044a9312d39ca22345, type: 2}
  - m_RefCount: 1
    m_Data: {fileID: 11400000, guid: f69c2e5d6a9294c4ea2a14f42cafad0b, type: 2}
  - m_RefCount: 1
    m_Data: {fileID: 11400000, guid: fbc9f4ca1baa02449b8e1e868daee428, type: 2}
  - m_RefCount: 1
    m_Data: {fileID: 11400000, guid: feb028ad73d469f41ab50fcc64b1bfdd, type: 2}
  - m_RefCount: 1
    m_Data: {fileID: 11400000, guid: 56280b8be8b338549a5e151af59d9420, type: 2}
  - m_RefCount: 1
    m_Data: {fileID: 11400000, guid: ac619cb15cbce7d4bb6b29b52e86fae9, type: 2}
  - m_RefCount: 1
    m_Data: {fileID: 11400000, guid: fa47e4fdc1224a240a3a1dfada6c2c0f, type: 2}
  - m_RefCount: 1
    m_Data: {fileID: 11400000, guid: 8b73904c662601b4bae5e363e4999d8a, type: 2}
  - m_RefCount: 1
    m_Data: {fileID: 11400000, guid: c5c0363cae0d9dd4a95c8f5913e803dd, type: 2}
  - m_RefCount: 1
    m_Data: {fileID: 11400000, guid: d4c14567c24212246b57954c37b8298b, type: 2}
  - m_RefCount: 1
    m_Data: {fileID: 11400000, guid: 023aa69de43dec249bd9898748d4a45b, type: 2}
  - m_RefCount: 1
    m_Data: {fileID: 11400000, guid: 45ccde5e99074b747a96575ebf96d801, type: 2}
  - m_RefCount: 1
    m_Data: {fileID: 11400000, guid: 20d9599e569caea4bb62c804432211c8, type: 2}
  - m_RefCount: 1
    m_Data: {fileID: 11400000, guid: 3e2961c6a07ee894dacc470c01398c3c, type: 2}
  - m_RefCount: 1
    m_Data: {fileID: 11400000, guid: 29c8eb37e5b53b148a74c8e43494ce5c, type: 2}
  - m_RefCount: 1
    m_Data: {fileID: 11400000, guid: 348fcff3c5b8ba740a89101f64654a17, type: 2}
  - m_RefCount: 1
    m_Data: {fileID: 11400000, guid: fc930bdd45286bf47a24d4900a6af464, type: 2}
  - m_RefCount: 1
    m_Data: {fileID: 11400000, guid: 7fdc1c97f0bae9b4e804fd68135df426, type: 2}
  - m_RefCount: 1
    m_Data: {fileID: 11400000, guid: 46f6f9dbc96fde446b34561287654b40, type: 2}
  - m_RefCount: 1
    m_Data: {fileID: 11400000, guid: b6c57d5597838c24da6646afdc77481e, type: 2}
  - m_RefCount: 1
    m_Data: {fileID: 11400000, guid: aec7f3267ec857948ba39d6637c10613, type: 2}
  - m_RefCount: 1
    m_Data: {fileID: 11400000, guid: 3e5d76eead9674f4bb89c22a96c0b80d, type: 2}
  - m_RefCount: 1
    m_Data: {fileID: 11400000, guid: bec35d4c2c8553c4a98315e52c2f7900, type: 2}
  - m_RefCount: 1
    m_Data: {fileID: 11400000, guid: 2b21d8fc1dcf8f64a98683bff4d6cb15, type: 2}
  - m_RefCount: 1
    m_Data: {fileID: 11400000, guid: 053f88b6cc0cb894fa0eff726b400102, type: 2}
  - m_RefCount: 1
    m_Data: {fileID: 11400000, guid: 64842728710344845847c45978ecd211, type: 2}
  - m_RefCount: 1
    m_Data: {fileID: 11400000, guid: e04d5635b0c5f584a81ea65ad6e6bf0e, type: 2}
  - m_RefCount: 1
    m_Data: {fileID: 11400000, guid: b09396cb9ca0a5c4bb1485d016287e70, type: 2}
  - m_RefCount: 1
    m_Data: {fileID: 11400000, guid: f4322bf6f6064974f9d58c1061a94a5d, type: 2}
  - m_RefCount: 1
    m_Data: {fileID: 11400000, guid: 5e920d189043ee24c90dd9673f87e3ea, type: 2}
  - m_RefCount: 1
    m_Data: {fileID: 11400000, guid: cd04122ad9a02c543a4d519487b3c94c, type: 2}
  - m_RefCount: 1
    m_Data: {fileID: 11400000, guid: 6d40a060454ce7145be088f9d148c1d0, type: 2}
  - m_RefCount: 1
    m_Data: {fileID: 11400000, guid: 240e50286de615848b3e217c128773bf, type: 2}
  - m_RefCount: 1
    m_Data: {fileID: 11400000, guid: e95ce6e6ddd486b4d80b8108ca91939d, type: 2}
  - m_RefCount: 1
    m_Data: {fileID: 11400000, guid: 579add6d4338f564c8741acf6adaf861, type: 2}
  - m_RefCount: 1
    m_Data: {fileID: 11400000, guid: 26293f5950356314095cfbd82aa6faf1, type: 2}
  - m_RefCount: 1
    m_Data: {fileID: 11400000, guid: 963035cef23b443489c9fe3e7474ca7b, type: 2}
  - m_RefCount: 1
    m_Data: {fileID: 11400000, guid: 96487382887e5f74ea36b57cf2f32ce9, type: 2}
  - m_RefCount: 1
    m_Data: {fileID: 11400000, guid: bcb9ce23943f0ef4db41fb2af2f02245, type: 2}
  - m_RefCount: 1
    m_Data: {fileID: 11400000, guid: 8964e1a9e071d694fa90808a74a47a80, type: 2}
  - m_RefCount: 1
    m_Data: {fileID: 11400000, guid: 9c78d005a5d981d49aaaf8002f106b64, type: 2}
  - m_RefCount: 1
    m_Data: {fileID: 11400000, guid: a23dd4756773a374d846e268b16ce5b5, type: 2}
  - m_RefCount: 1
    m_Data: {fileID: 11400000, guid: 074f892f85091cb4eacc5022ce604c9b, type: 2}
  - m_RefCount: 1
    m_Data: {fileID: 11400000, guid: a007be3dcc067324ba9d350c29f81c28, type: 2}
  - m_RefCount: 1
    m_Data: {fileID: 11400000, guid: f55bb2a858b3fa943ba57d8cf255dd0e, type: 2}
  - m_RefCount: 1
    m_Data: {fileID: 11400000, guid: 116ad9fa66c0b4b4da2fb99f9766e8d7, type: 2}
  - m_RefCount: 1
    m_Data: {fileID: 11400000, guid: ec81d5f11e12cb042afcf8d46b347b13, type: 2}
  m_TileSpriteArray:
  - m_RefCount: 1
    m_Data: {fileID: 302309902, guid: 87adabe01efcf3145ab7217e01fc1451, type: 3}
  - m_RefCount: 1
    m_Data: {fileID: -569166186, guid: 87adabe01efcf3145ab7217e01fc1451, type: 3}
  - m_RefCount: 1
    m_Data: {fileID: -348369682, guid: 87adabe01efcf3145ab7217e01fc1451, type: 3}
  - m_RefCount: 1
    m_Data: {fileID: 296049599, guid: 87adabe01efcf3145ab7217e01fc1451, type: 3}
  - m_RefCount: 1
    m_Data: {fileID: 632052075, guid: 87adabe01efcf3145ab7217e01fc1451, type: 3}
  - m_RefCount: 1
    m_Data: {fileID: 542214218, guid: 87adabe01efcf3145ab7217e01fc1451, type: 3}
  - m_RefCount: 1
    m_Data: {fileID: -1042698698, guid: 87adabe01efcf3145ab7217e01fc1451, type: 3}
  - m_RefCount: 1
    m_Data: {fileID: 119621706, guid: 87adabe01efcf3145ab7217e01fc1451, type: 3}
  - m_RefCount: 1
    m_Data: {fileID: 418970426, guid: 87adabe01efcf3145ab7217e01fc1451, type: 3}
  - m_RefCount: 1
    m_Data: {fileID: 559332893, guid: 87adabe01efcf3145ab7217e01fc1451, type: 3}
  - m_RefCount: 1
    m_Data: {fileID: -1132373658, guid: 87adabe01efcf3145ab7217e01fc1451, type: 3}
  - m_RefCount: 1
    m_Data: {fileID: 1499772678, guid: 87adabe01efcf3145ab7217e01fc1451, type: 3}
  - m_RefCount: 1
    m_Data: {fileID: -470598238, guid: 87adabe01efcf3145ab7217e01fc1451, type: 3}
  - m_RefCount: 1
    m_Data: {fileID: -1165203340, guid: 87adabe01efcf3145ab7217e01fc1451, type: 3}
  - m_RefCount: 1
    m_Data: {fileID: 1268230782, guid: 87adabe01efcf3145ab7217e01fc1451, type: 3}
  - m_RefCount: 1
    m_Data: {fileID: 1261213327, guid: 87adabe01efcf3145ab7217e01fc1451, type: 3}
  - m_RefCount: 1
    m_Data: {fileID: 428148224, guid: 87adabe01efcf3145ab7217e01fc1451, type: 3}
  - m_RefCount: 1
    m_Data: {fileID: -217213557, guid: 87adabe01efcf3145ab7217e01fc1451, type: 3}
  - m_RefCount: 1
    m_Data: {fileID: 990529839, guid: 87adabe01efcf3145ab7217e01fc1451, type: 3}
  - m_RefCount: 1
    m_Data: {fileID: 716339975, guid: 87adabe01efcf3145ab7217e01fc1451, type: 3}
  - m_RefCount: 1
    m_Data: {fileID: -953221859, guid: 87adabe01efcf3145ab7217e01fc1451, type: 3}
  - m_RefCount: 1
    m_Data: {fileID: -1519889234, guid: 87adabe01efcf3145ab7217e01fc1451, type: 3}
  - m_RefCount: 1
    m_Data: {fileID: 1167277355, guid: 87adabe01efcf3145ab7217e01fc1451, type: 3}
  - m_RefCount: 1
    m_Data: {fileID: -293003860, guid: 87adabe01efcf3145ab7217e01fc1451, type: 3}
  - m_RefCount: 1
    m_Data: {fileID: 1950469140, guid: 87adabe01efcf3145ab7217e01fc1451, type: 3}
  - m_RefCount: 1
    m_Data: {fileID: 1340825050, guid: 87adabe01efcf3145ab7217e01fc1451, type: 3}
  - m_RefCount: 1
    m_Data: {fileID: 761361333, guid: 87adabe01efcf3145ab7217e01fc1451, type: 3}
  - m_RefCount: 1
    m_Data: {fileID: -291645177, guid: 87adabe01efcf3145ab7217e01fc1451, type: 3}
  - m_RefCount: 1
    m_Data: {fileID: -1232634019, guid: 87adabe01efcf3145ab7217e01fc1451, type: 3}
  - m_RefCount: 1
    m_Data: {fileID: -180713414, guid: 87adabe01efcf3145ab7217e01fc1451, type: 3}
  - m_RefCount: 1
    m_Data: {fileID: -1668530777, guid: 87adabe01efcf3145ab7217e01fc1451, type: 3}
  - m_RefCount: 1
    m_Data: {fileID: -140852646, guid: 87adabe01efcf3145ab7217e01fc1451, type: 3}
  - m_RefCount: 1
    m_Data: {fileID: 2111868413, guid: 87adabe01efcf3145ab7217e01fc1451, type: 3}
  - m_RefCount: 1
    m_Data: {fileID: 1218535107, guid: 87adabe01efcf3145ab7217e01fc1451, type: 3}
  - m_RefCount: 1
    m_Data: {fileID: -1506720916, guid: 87adabe01efcf3145ab7217e01fc1451, type: 3}
  - m_RefCount: 1
    m_Data: {fileID: -1009459099, guid: 87adabe01efcf3145ab7217e01fc1451, type: 3}
  - m_RefCount: 1
    m_Data: {fileID: -988052738, guid: 87adabe01efcf3145ab7217e01fc1451, type: 3}
  - m_RefCount: 1
    m_Data: {fileID: -380035566, guid: 87adabe01efcf3145ab7217e01fc1451, type: 3}
  - m_RefCount: 1
    m_Data: {fileID: 1817979164, guid: 87adabe01efcf3145ab7217e01fc1451, type: 3}
  - m_RefCount: 1
    m_Data: {fileID: -949456453, guid: 87adabe01efcf3145ab7217e01fc1451, type: 3}
  - m_RefCount: 1
    m_Data: {fileID: 1900957326, guid: 87adabe01efcf3145ab7217e01fc1451, type: 3}
  - m_RefCount: 1
    m_Data: {fileID: 1237179041, guid: 87adabe01efcf3145ab7217e01fc1451, type: 3}
  - m_RefCount: 1
    m_Data: {fileID: -100876159, guid: 87adabe01efcf3145ab7217e01fc1451, type: 3}
  - m_RefCount: 1
    m_Data: {fileID: 445122515, guid: 87adabe01efcf3145ab7217e01fc1451, type: 3}
  - m_RefCount: 1
    m_Data: {fileID: 17546583, guid: 87adabe01efcf3145ab7217e01fc1451, type: 3}
  - m_RefCount: 1
    m_Data: {fileID: -963258167, guid: 87adabe01efcf3145ab7217e01fc1451, type: 3}
  - m_RefCount: 1
    m_Data: {fileID: 396710690, guid: 87adabe01efcf3145ab7217e01fc1451, type: 3}
  - m_RefCount: 1
    m_Data: {fileID: -1885916239, guid: 87adabe01efcf3145ab7217e01fc1451, type: 3}
  - m_RefCount: 1
    m_Data: {fileID: -1982993935, guid: 87adabe01efcf3145ab7217e01fc1451, type: 3}
  - m_RefCount: 1
    m_Data: {fileID: 1362234368, guid: 87adabe01efcf3145ab7217e01fc1451, type: 3}
  - m_RefCount: 1
    m_Data: {fileID: -1862951984, guid: 87adabe01efcf3145ab7217e01fc1451, type: 3}
  - m_RefCount: 1
    m_Data: {fileID: -1676594719, guid: 87adabe01efcf3145ab7217e01fc1451, type: 3}
  - m_RefCount: 1
    m_Data: {fileID: -1408215106, guid: 87adabe01efcf3145ab7217e01fc1451, type: 3}
  - m_RefCount: 1
    m_Data: {fileID: -2022358316, guid: 87adabe01efcf3145ab7217e01fc1451, type: 3}
  - m_RefCount: 1
    m_Data: {fileID: -1665089062, guid: 87adabe01efcf3145ab7217e01fc1451, type: 3}
  m_TileMatrixArray:
  - m_RefCount: 55
    m_Data:
      e00: 1
      e01: 0
      e02: 0
      e03: 0
      e10: 0
      e11: 1
      e12: 0
      e13: 0
      e20: 0
      e21: 0
      e22: 1
      e23: 0
      e30: 0
      e31: 0
      e32: 0
      e33: 1
  m_TileColorArray:
  - m_RefCount: 55
    m_Data: {r: 1, g: 1, b: 1, a: 1}
  m_TileObjectToInstantiateArray: []
  m_AnimationFrameRate: 1
  m_Color: {r: 1, g: 1, b: 1, a: 1}
  m_Origin: {x: -1, y: -7, z: 0}
  m_Size: {x: 7, y: 8, z: 1}
  m_TileAnchor: {x: 0.5, y: 0.5, z: 0}
  m_TileOrientation: 0
  m_TileOrientationMatrix:
    e00: 1
    e01: 0
    e02: 0
    e03: 0
    e10: 0
    e11: 1
    e12: 0
    e13: 0
    e20: 0
    e21: 0
    e22: 1
    e23: 0
    e30: 0
    e31: 0
    e32: 0
    e33: 1
--- !u!483693784 &2301012379759421842
TilemapRenderer:
  m_ObjectHideFlags: 0
  m_CorrespondingSourceObject: {fileID: 0}
  m_PrefabInstance: {fileID: 0}
  m_PrefabAsset: {fileID: 0}
  m_GameObject: {fileID: 887336752529192812}
  m_Enabled: 1
  m_CastShadows: 0
  m_ReceiveShadows: 0
  m_DynamicOccludee: 0
  m_StaticShadowCaster: 0
  m_MotionVectors: 1
  m_LightProbeUsage: 0
  m_ReflectionProbeUsage: 0
  m_RayTracingMode: 0
  m_RayTraceProcedural: 0
  m_RenderingLayerMask: 1
  m_RendererPriority: 0
  m_Materials:
  - {fileID: 2100000, guid: a97c105638bdf8b4a8650670310a4cd3, type: 2}
  m_StaticBatchInfo:
    firstSubMesh: 0
    subMeshCount: 0
  m_StaticBatchRoot: {fileID: 0}
  m_ProbeAnchor: {fileID: 0}
  m_LightProbeVolumeOverride: {fileID: 0}
  m_ScaleInLightmap: 1
  m_ReceiveGI: 1
  m_PreserveUVs: 0
  m_IgnoreNormalsForChartDetection: 0
  m_ImportantGI: 0
  m_StitchLightmapSeams: 1
  m_SelectedEditorRenderState: 0
  m_MinimumChartSize: 4
  m_AutoUVMaxDistance: 0.5
  m_AutoUVMaxAngle: 89
  m_LightmapParameters: {fileID: 0}
  m_SortingLayerID: 0
  m_SortingLayer: 0
  m_SortingOrder: 0
  m_ChunkSize: {x: 32, y: 32, z: 32}
  m_ChunkCullingBounds: {x: 0, y: 0, z: 0}
  m_MaxChunkCount: 16
  m_MaxFrameAge: 16
  m_SortOrder: 0
  m_Mode: 0
  m_DetectChunkCullingBounds: 0
  m_MaskInteraction: 0
--- !u!1 &3657194167182350376
GameObject:
  m_ObjectHideFlags: 0
  m_CorrespondingSourceObject: {fileID: 0}
  m_PrefabInstance: {fileID: 0}
  m_PrefabAsset: {fileID: 0}
  serializedVersion: 6
  m_Component:
  - component: {fileID: 4673510387064748791}
  - component: {fileID: 4492217947153061398}
  m_Layer: 0
  m_Name: TP Props
  m_TagString: Untagged
  m_Icon: {fileID: 0}
  m_NavMeshLayer: 0
  m_StaticEditorFlags: 0
  m_IsActive: 1
--- !u!4 &4673510387064748791
Transform:
  m_ObjectHideFlags: 0
  m_CorrespondingSourceObject: {fileID: 0}
  m_PrefabInstance: {fileID: 0}
  m_PrefabAsset: {fileID: 0}
  m_GameObject: {fileID: 3657194167182350376}
  m_LocalRotation: {x: 0, y: 0, z: 0, w: 1}
  m_LocalPosition: {x: 0, y: 0, z: 0}
  m_LocalScale: {x: 1, y: 1, z: 1}
  m_ConstrainProportionsScale: 0
  m_Children:
  - {fileID: 4066913898361156698}
  m_Father: {fileID: 0}
  m_RootOrder: 0
  m_LocalEulerAnglesHint: {x: 0, y: 0, z: 0}
--- !u!156049354 &4492217947153061398
Grid:
  m_ObjectHideFlags: 0
  m_CorrespondingSourceObject: {fileID: 0}
  m_PrefabInstance: {fileID: 0}
  m_PrefabAsset: {fileID: 0}
  m_GameObject: {fileID: 3657194167182350376}
  m_Enabled: 1
  m_CellSize: {x: 1, y: 1, z: 0}
  m_CellGap: {x: 0, y: 0, z: 0}
  m_CellLayout: 0
  m_CellSwizzle: 0
--- !u!114 &5550447244184195612
MonoBehaviour:
  m_ObjectHideFlags: 0
  m_CorrespondingSourceObject: {fileID: 0}
  m_PrefabInstance: {fileID: 0}
  m_PrefabAsset: {fileID: 0}
  m_GameObject: {fileID: 0}
  m_Enabled: 1
  m_EditorHideFlags: 0
  m_Script: {fileID: 12395, guid: 0000000000000000e000000000000000, type: 0}
  m_Name: Palette Settings
  m_EditorClassIdentifier: 
  cellSizing: 0
  m_TransparencySortMode: 0
  m_TransparencySortAxis: {x: 0, y: 0, z: 1}
