%YAML 1.1
%TAG !u! tag:unity3d.com,2011:
--- !u!21 &2100000
Material:
  serializedVersion: 8
  m_ObjectHideFlags: 0
  m_CorrespondingSourceObject: {fileID: 0}
  m_PrefabInstance: {fileID: 0}
  m_PrefabAsset: {fileID: 0}
  m_Name: Material_UI_Weapon_Border_Common
  m_Shader: {fileID: -6465566751694194690, guid: 629abf4a08ca69f4fb0330380ae551e8, type: 3}
  m_ValidKeywords: []
  m_InvalidKeywords: []
  m_LightmapFlags: 4
  m_EnableInstancingVariants: 0
  m_DoubleSidedGI: 0
  m_CustomRenderQueue: -1
  stringTagMap: {}
  disabledShaderPasses: []
  m_SavedProperties:
    serializedVersion: 3
    m_TexEnvs:
    - _MainTex:
        m_Texture: {fileID: 2800000, guid: a8f18d0cedefdec4c8837a597bf4779c, type: 3}
        m_Scale: {x: 1, y: 1}
        m_Offset: {x: 0, y: 0}
    - unity_Lightmaps:
        m_Texture: {fileID: 0}
        m_Scale: {x: 1, y: 1}
        m_Offset: {x: 0, y: 0}
    - unity_LightmapsInd:
        m_Texture: {fileID: 0}
        m_Scale: {x: 1, y: 1}
        m_Offset: {x: 0, y: 0}
    - unity_ShadowMasks:
        m_Texture: {fileID: 0}
        m_Scale: {x: 1, y: 1}
        m_Offset: {x: 0, y: 0}
    m_Ints: []
    m_Floats:
    - _InsideColorFade: 0.85
    - _OutlineNb: 4
    - _RotationSpeed: 0.25
    - _RotationSpeedAmplitude: 0
    - _RotationSpeedFrequence: 3
    m_Colors:
    - _Color: {r: 1, g: 1, b: 1, a: 1}
    - _InsideColor: {r: 1, g: 1, b: 1, a: 0}
    - _OutlineColor: {r: 1, g: 1, b: 1, a: 1}
  m_BuildTextureStacks: []
