%YAML 1.1
%TAG !u! tag:unity3d.com,2011:
--- !u!1001 &3759059277500679735
PrefabInstance:
  m_ObjectHideFlags: 0
  serializedVersion: 2
  m_Modification:
    m_TransformParent: {fileID: 0}
    m_Modifications:
    - target: {fileID: 7273489901161932216, guid: d4bd69e7eebfd23468b9314c7ab29044, type: 3}
      propertyPath: m_Name
      value: EnemyManager_TheAcademy2
      objectReference: {fileID: 0}
    - target: {fileID: 7273489901161932218, guid: d4bd69e7eebfd23468b9314c7ab29044, type: 3}
      propertyPath: m_RootOrder
      value: 0
      objectReference: {fileID: 0}
    - target: {fileID: 7273489901161932218, guid: d4bd69e7eebfd23468b9314c7ab29044, type: 3}
      propertyPath: m_LocalPosition.x
      value: 0
      objectReference: {fileID: 0}
    - target: {fileID: 7273489901161932218, guid: d4bd69e7eebfd23468b9314c7ab29044, type: 3}
      propertyPath: m_LocalPosition.y
      value: 0
      objectReference: {fileID: 0}
    - target: {fileID: 7273489901161932218, guid: d4bd69e7eebfd23468b9314c7ab29044, type: 3}
      propertyPath: m_LocalPosition.z
      value: 0
      objectReference: {fileID: 0}
    - target: {fileID: 7273489901161932218, guid: d4bd69e7eebfd23468b9314c7ab29044, type: 3}
      propertyPath: m_LocalRotation.w
      value: 1
      objectReference: {fileID: 0}
    - target: {fileID: 7273489901161932218, guid: d4bd69e7eebfd23468b9314c7ab29044, type: 3}
      propertyPath: m_LocalRotation.x
      value: 0
      objectReference: {fileID: 0}
    - target: {fileID: 7273489901161932218, guid: d4bd69e7eebfd23468b9314c7ab29044, type: 3}
      propertyPath: m_LocalRotation.y
      value: 0
      objectReference: {fileID: 0}
    - target: {fileID: 7273489901161932218, guid: d4bd69e7eebfd23468b9314c7ab29044, type: 3}
      propertyPath: m_LocalRotation.z
      value: 0
      objectReference: {fileID: 0}
    - target: {fileID: 7273489901161932218, guid: d4bd69e7eebfd23468b9314c7ab29044, type: 3}
      propertyPath: m_LocalEulerAnglesHint.x
      value: 0
      objectReference: {fileID: 0}
    - target: {fileID: 7273489901161932218, guid: d4bd69e7eebfd23468b9314c7ab29044, type: 3}
      propertyPath: m_LocalEulerAnglesHint.y
      value: 0
      objectReference: {fileID: 0}
    - target: {fileID: 7273489901161932218, guid: d4bd69e7eebfd23468b9314c7ab29044, type: 3}
      propertyPath: m_LocalEulerAnglesHint.z
      value: 0
      objectReference: {fileID: 0}
    m_RemovedComponents: []
  m_SourcePrefab: {fileID: 100100000, guid: d4bd69e7eebfd23468b9314c7ab29044, type: 3}
