%YAML 1.1
%TAG !u! tag:unity3d.com,2011:
--- !u!1001 &8274965684554771486
PrefabInstance:
  m_ObjectHideFlags: 0
  serializedVersion: 2
  m_Modification:
    m_TransformParent: {fileID: 0}
    m_Modifications:
    - target: {fileID: 6798660828476733535, guid: b6ea7a94df777654395b86d6b86ae8fe, type: 3}
      propertyPath: m_RootOrder
      value: 0
      objectReference: {fileID: 0}
    - target: {fileID: 6798660828476733535, guid: b6ea7a94df777654395b86d6b86ae8fe, type: 3}
      propertyPath: m_LocalPosition.x
      value: 0
      objectReference: {fileID: 0}
    - target: {fileID: 6798660828476733535, guid: b6ea7a94df777654395b86d6b86ae8fe, type: 3}
      propertyPath: m_LocalPosition.y
      value: 0
      objectReference: {fileID: 0}
    - target: {fileID: 6798660828476733535, guid: b6ea7a94df777654395b86d6b86ae8fe, type: 3}
      propertyPath: m_LocalPosition.z
      value: 0
      objectReference: {fileID: 0}
    - target: {fileID: 6798660828476733535, guid: b6ea7a94df777654395b86d6b86ae8fe, type: 3}
      propertyPath: m_LocalRotation.w
      value: 1
      objectReference: {fileID: 0}
    - target: {fileID: 6798660828476733535, guid: b6ea7a94df777654395b86d6b86ae8fe, type: 3}
      propertyPath: m_LocalRotation.x
      value: 0
      objectReference: {fileID: 0}
    - target: {fileID: 6798660828476733535, guid: b6ea7a94df777654395b86d6b86ae8fe, type: 3}
      propertyPath: m_LocalRotation.y
      value: 0
      objectReference: {fileID: 0}
    - target: {fileID: 6798660828476733535, guid: b6ea7a94df777654395b86d6b86ae8fe, type: 3}
      propertyPath: m_LocalRotation.z
      value: 0
      objectReference: {fileID: 0}
    - target: {fileID: 6798660828476733535, guid: b6ea7a94df777654395b86d6b86ae8fe, type: 3}
      propertyPath: m_LocalEulerAnglesHint.x
      value: 0
      objectReference: {fileID: 0}
    - target: {fileID: 6798660828476733535, guid: b6ea7a94df777654395b86d6b86ae8fe, type: 3}
      propertyPath: m_LocalEulerAnglesHint.y
      value: 0
      objectReference: {fileID: 0}
    - target: {fileID: 6798660828476733535, guid: b6ea7a94df777654395b86d6b86ae8fe, type: 3}
      propertyPath: m_LocalEulerAnglesHint.z
      value: 0
      objectReference: {fileID: 0}
    - target: {fileID: 7466935046982726085, guid: b6ea7a94df777654395b86d6b86ae8fe, type: 3}
      propertyPath: m_Name
      value: WeaponUpgradeRarityManager
      objectReference: {fileID: 0}
    m_RemovedComponents: []
  m_SourcePrefab: {fileID: 100100000, guid: b6ea7a94df777654395b86d6b86ae8fe, type: 3}
